Place,Event,Equipment,Sex,Division,Name,WeightClassKg,BodyweightKg,Best3SquatKg,Best3BenchKg,Best3DeadliftKg,TotalKg,Country
1,B,Raw,F,Open,Catherine Defraey,63,61.85,,57.5,,57.5,Belgium
1,B,Raw,F,Masters 3,Viviane Lerot,72,63.7,,45,,45,Belgium
1,B,Raw,M,Sub-Juniors,Solano Peracchi,66,65.1,,80,,80,Belgium
1,B,Raw,M,Masters 2,Laurent Cazzato,105,103.2,,95,,95,Belgium
1,B,Raw,M,Masters 3,Michel Dubucq,105,103.75,,158,,158,Belgium
1,B,Single-ply,M,Masters 3,Paul Vernimmen,59,53.4,,60,,60,Belgium
1,B,Single-ply,M,Masters 3,Jean-Luc Collart,120,118.45,,202.5,,202.5,Belgium
1,B,Single-ply,M,Masters 4,Daniel Reybrouck,93,89.15,,120,,120,Belgium