Division,WeightClassKg,Place,Name,Team,BodyweightKg,Best3SquatKg,Best3BenchKg,Best3DeadliftKg,TotalKg,Equipment,Event,Sex
Boys,51.71,1,Devin Lasenby,Paris North Lamar,49.17,158.76,92.99,124.74,376.48,Single-ply,SBD,M
Boys,55.79,2,Austin Puetz,Paris,51.94,92.99,56.7,115.67,265.35,Single-ply,SBD,M
Boys,55.79,1,Colton Strode,Cooper,55.52,113.4,61.23,129.27,303.91,Single-ply,SBD,M
Boys,59.87,1,Braden Kelley,Paris North Lamar,59.78,120.2,70.31,158.76,349.27,Single-ply,SBD,M
Boys,59.87,2,Jared Matthews,Paris Chisum,58.79,120.2,81.65,145.15,347,Single-ply,SBD,M
Boys,59.87,3,Loren Munns,Paris North Lamar,59.87,106.59,70.31,113.4,290.3,Single-ply,SBD,M
Boys,67.13,1,Clem Bailey,Paris,66.22,183.7,129.27,195.04,508.02,Single-ply,SBD,M
Boys,74.84,2,Dondrell Hawkins,Paris,67.31,156.49,95.25,179.17,430.91,Single-ply,SBD,M
Boys,67.13,3,Grant Kilcrease,Paris North Lamar,66.86,138.35,88.45,170.1,396.89,Single-ply,SBD,M
Boys,67.13,4,Kaleb Stringer,Paris North Lamar,66.68,158.76,74.84,142.88,376.48,Single-ply,SBD,M
Boys,67.13,5,Aaron Whitney,Bogata Rivercrest,64.59,156.49,83.91,131.54,371.95,Single-ply,SBD,M
Boys,67.13,6,Tanner Phifer,Cooper,66.04,124.74,74.84,158.76,358.34,Single-ply,SBD,M
Boys,74.84,1,Dominick Sanders,Paris,74.3,213.19,117.93,233.6,564.72,Single-ply,SBD,M
Boys,74.84,2,Chance Kelly,Paris North Lamar,73.66,154.22,106.59,183.7,444.52,Single-ply,SBD,M
Boys,74.84,3,Kidarius Corprew,Paris,71.76,183.7,88.45,158.76,430.91,Single-ply,SBD,M
Boys,82.1,4,Rob Ward,Bogata Rivercrest,75.07,161.03,77.11,176.9,415.04,Single-ply,SBD,M
Boys,74.84,5,Brent Pentecost,Paris North Lamar,71.4,138.35,83.91,183.7,405.97,Single-ply,SBD,M
Boys,89.81,1,Ty Smith,Paris North Lamar,82.19,267.62,138.35,249.48,655.44,Single-ply,SBD,M
Boys,82.1,2,Maverick Jones,Paris North Lamar,80.65,226.8,136.08,226.8,589.67,Single-ply,SBD,M
Boys,82.1,3,Travis Oden,Cooper,76.11,176.9,124.74,195.04,496.68,Single-ply,SBD,M
Boys,82.1,4,Cody Edwards,Paris North Lamar,77.11,179.17,106.59,183.7,469.47,Single-ply,SBD,M
Boys,82.1,5,Andrew Johnson #6,Paris North Lamar,81.01,181.44,83.91,199.58,464.93,Single-ply,SBD,M
Boys,82.1,6,Tristan McClure,Paris,78.11,136.08,74.84,163.29,374.21,Single-ply,SBD,M
Boys,89.81,1,Dq Lipscomb,Paris,89.09,263.08,154.22,274.42,691.73,Single-ply,SBD,M
Boys,89.81,2,Joseph Winton,Paris North Lamar,86.09,124.74,83.91,154.22,362.87,Single-ply,SBD,M
Boys,89.81,3,Ethan England,Paris,87.09,113.4,65.77,158.76,337.93,Single-ply,SBD,M
Boys,89.81,4,Daryl Bennett,Paris Chisum,89.72,92.99,63.5,99.79,256.28,Single-ply,SBD,M
Boys,89.81,5,Seth Spangler,Paris Chisum,83.37,83.91,63.5,99.79,247.21,Single-ply,SBD,M
Boys,99.79,1,KaLynn Miller,Paris Chisum,97.16,204.12,147.42,210.92,562.45,Single-ply,SBD,M
Boys,99.79,2,Jon Boehlar,Paris Chisum,94.89,190.51,154.22,206.38,551.11,Single-ply,SBD,M
Boys,99.79,3,Justin Warner,Cooper,93.53,192.78,124.74,204.12,521.63,Single-ply,SBD,M
Boys,99.79,4,Eli Estep,Cooper,96.43,149.69,122.47,183.7,455.86,Single-ply,SBD,M
Boys,99.79,5,Geoffrey Smith,Paris,91.9,158.76,102.06,181.44,442.25,Single-ply,SBD,M
Boys,99.79,6,Eric Dickey,Paris North Lamar,96.16,156.49,115.67,170.1,442.25,Single-ply,SBD,M
Boys,99.79,7,William Jamar,Paris North Lamar,95.89,151.95,106.59,165.56,424.11,Single-ply,SBD,M
Boys,109.77,8,Jake Keller,Paris,99.97,113.4,43.09,115.67,272.16,Single-ply,SBD,M
Boys,109.77,1,Tyler Williams,Cooper,106.87,161.03,111.13,172.37,444.52,Single-ply,SBD,M
Boys,109.77,2,Billy Watson,Cooper,109.68,142.88,97.52,158.76,399.16,Single-ply,SBD,M
Boys,109.77,3,Tito Rivera,Paris Chisum,109.41,145.15,,151.95,297.1,Single-ply,SD,M
Boys,124.74,1,Marquis Gill,Paris,116.57,226.8,156.49,213.19,596.47,Single-ply,SBD,M
Boys,124.74,2,Brandon Phillips,Paris,117.84,233.6,142.88,142.88,519.36,Single-ply,SBD,M
Boys,124.74+,1,Jackie Berry,Paris North Lamar,134.08,183.7,83.91,213.19,480.81,Single-ply,SBD,M
