Division,WeightClassKg,Place,Name,Team,BodyweightKg,Best3SquatKg,Best3BenchKg,Best3DeadliftKg,TotalKg,Equipment,Event,Sex
Boys,51.71,1,Dean Lewis,La Vernia,51.26,129.27,83.91,156.49,369.68,Single-ply,SBD,M
Boys,51.71,2,Arturo Alejando,San Antonio Highlands,51.71,92.99,72.57,138.35,303.91,Single-ply,SBD,M
Boys,51.71,3,Hunter Harwood,Comal Canyon,49.58,113.4,61.23,120.2,294.84,Single-ply,SBD,M
Boys,51.71,4,Josh Ramirez,Kyle Lehman,50.26,97.52,61.23,117.93,276.69,Single-ply,SBD,M
Boys,51.71,5,Andrew Cabrera,seguin,42.5,68.04,52.16,90.72,210.92,Single-ply,SBD,M
Boys,51.71,6,Collin Everman,Comal Canyon,44,61.23,34.02,77.11,172.37,Single-ply,SBD,M
Boys,55.79,1,Mario Leos,seguin,55.2,140.61,99.79,181.44,421.84,Single-ply,SBD,M
Boys,55.79,2,Jon Guillen,Lytle,54.88,124.74,83.91,149.69,358.34,Single-ply,SBD,M
Boys,55.79,3,Gino Sciaraffa,Comal Canyon,55.34,129.27,74.84,142.88,347,Single-ply,SBD,M
Boys,55.79,4,Cole Jackson,San Antonio Southside,55.79,138.35,52.16,149.69,340.19,Single-ply,SBD,M
Boys,55.79,5,Benito Flores,San Antonio Southside,55.79,117.93,72.57,142.88,333.39,Single-ply,SBD,M
Boys,55.79,6,Juan Guerrero,Lytle,55.02,108.86,61.23,124.74,294.84,Single-ply,SBD,M
Boys,55.79,7,Roland Sanchez,Uvalde,54.34,106.59,52.16,124.74,283.5,Single-ply,SBD,M
Boys,55.79,8,Cameron Smith #9,Rocksprings,55.38,97.52,58.97,122.47,278.96,Single-ply,SBD,M
Boys,55.79,9,Jake Mares,San Antonio Southside,55.52,92.99,52.16,120.2,265.35,Single-ply,SBD,M
Boys,55.79,DQ,Aziel Torres,San Antonio Southside,55.79,,,,,Single-ply,SBD,M
Boys,59.87,1,Caleel Turner,Comal Canyon,58.97,165.56,72.57,167.83,405.97,Single-ply,SBD,M
Boys,59.87,2,Cameron Baird,Kyle Lehman,59.87,154.22,74.84,158.76,387.82,Single-ply,SBD,M
Boys,59.87,3,Joseph Gonzalez,San Antonio Highlands,59.87,138.35,86.18,151.95,376.48,Single-ply,SBD,M
Boys,59.87,4,Lorenzo Flores,La Vernia,56.29,122.47,88.45,151.95,362.87,Single-ply,SBD,M
Boys,59.87,5,Rudy Martinez,Kyle Lehman,58.97,131.54,72.57,151.95,356.07,Single-ply,SBD,M
Boys,59.87,6,Steven Cervantez,San Antonio Highlands,59.6,131.54,83.91,138.35,353.8,Single-ply,SBD,M
Boys,59.87,7,Robert Carrasco,Pleasanton,59.28,176.9,81.65,,258.55,Single-ply,SB,M
Boys,59.87,8,Gilbert Garcia,Northside Holmes,59.87,102.06,,,102.06,Single-ply,S,M
Boys,67.13,1,Peter Webre,Comal Canyon,65.32,217.72,117.93,208.65,544.31,Single-ply,SBD,M
Boys,67.13,2,Jc Carpenter,seguin,66.32,181.44,120.2,192.78,494.42,Single-ply,SBD,M
Boys,67.13,3,Andrew Harris,San Antonio Southside,67.04,190.51,90.72,183.7,464.93,Single-ply,SBD,M
Boys,67.13,4,Feliciano Delgadillo,San Antonio Southside,67.13,190.51,102.06,149.69,442.25,Single-ply,SBD,M
Boys,67.13,5,Jacob Torres,Kyle Lehman,63.05,156.49,108.86,174.63,439.98,Single-ply,SBD,M
Boys,67.13,6,Able Ingle,Floresville,65.32,142.88,95.25,172.37,410.5,Single-ply,SBD,M
Boys,67.13,7,David Gonzales,Northside Holmes,67.13,165.56,68.04,158.76,392.36,Single-ply,SBD,M
Boys,67.13,8,Ty Henk,Comal Canyon,64.41,151.95,86.18,149.69,387.82,Single-ply,SBD,M
Boys,67.13,9,Richard Smith,Kyle Lehman,66.5,138.35,83.91,165.56,387.82,Single-ply,SBD,M
Boys,67.13,10,Mark Mendez,Floresville,66.81,136.08,77.11,172.37,385.55,Single-ply,SBD,M
Boys,67.13,11,Kendal Williams,San Antonio Southside,64.91,138.35,83.91,149.69,371.95,Single-ply,SBD,M
Boys,67.13,12,David Greenwood,La Vernia,63.5,129.27,104.33,129.27,362.87,Single-ply,SBD,M
Boys,67.13,13,Robert Trevino,Natalia,61.1,131.54,61.23,151.95,344.73,Single-ply,SBD,M
Boys,67.13,14,Juan Avila,San Antonio Southside,65.27,122.47,72.57,136.08,331.12,Single-ply,SBD,M
Boys,67.13,15,Taylor Carrillo,Lytle,61.14,108.86,65.77,136.08,310.71,Single-ply,SBD,M
Boys,67.13,16,Adrian Valdez,Lytle,61.6,108.86,77.11,124.74,310.71,Single-ply,SBD,M
Boys,67.13,17,Christian Reyes,Kyle Lehman,64,108.86,70.31,122.47,301.64,Single-ply,SBD,M
Boys,67.13,18,Matt Doss,seguin,65.09,90.72,61.23,120.2,272.16,Single-ply,SBD,M
Boys,67.13,DQ,Chase Brown,Wimberley,66.27,,,,,Single-ply,SBD,M
Boys,67.13,DQ,Gage Hadlock,Comal Canyon,67.13,,,,,Single-ply,SBD,M
Boys,67.13,DQ,Emilio Patlan,Lytle,67.13,,,,,Single-ply,SBD,M
Boys,74.84,1,Jon Frasier,Kyle Lehman,71.62,195.04,133.81,183.7,512.56,Single-ply,SBD,M
Boys,74.84,2,Carlton Bullard,Floresville,74.84,188.24,117.93,204.12,510.29,Single-ply,SBD,M
Boys,74.84,3,Jonathan Parker,Floresville,74.75,161.03,102.06,190.51,453.59,Single-ply,SBD,M
Boys,74.84,4,Gilbert Perez,Floresville,71.3,181.44,81.65,181.44,444.52,Single-ply,SBD,M
Boys,74.84,5,Daniel Yanez,Lytle,69.67,158.76,102.06,165.56,426.38,Single-ply,SBD,M
Boys,74.84,6,Vince Zaragosa,San Antonio Highlands,74.75,138.35,88.45,188.24,415.04,Single-ply,SBD,M
Boys,74.84,7,AJ Rice,Comal Canyon,74.84,151.95,77.11,165.56,394.63,Single-ply,SBD,M
Boys,74.84,8,Bloom Tyler,Wimberley,70.35,147.42,83.91,161.03,392.36,Single-ply,SBD,M
Boys,74.84,9,Jeremy Rodriguez #3,Kyle Lehman,71.62,138.35,86.18,167.83,392.36,Single-ply,SBD,M
Boys,74.84,10,Rigo Bueno,Uvalde,72.03,154.22,86.18,142.88,383.29,Single-ply,SBD,M
Boys,74.84,11,Jose Cardenas,Uvalde,67.59,136.08,77.11,163.29,376.48,Single-ply,SBD,M
Boys,74.84,12,Manuel Zapata,Rocksprings,73.98,136.08,86.18,145.15,367.41,Single-ply,SBD,M
Boys,74.84,13,Zac Qualls,Pleasanton,74.84,136.08,79.38,145.15,360.61,Single-ply,SBD,M
Boys,74.84,14,Angel Blanco,Uvalde,70.35,138.35,74.84,142.88,356.07,Single-ply,SBD,M
Boys,74.84,15,Taylor Shearrer,Pleasanton,69.35,136.08,70.31,147.42,353.8,Single-ply,SBD,M
Boys,74.84,16,Andrew Longworth,Kyle Lehman,69.13,124.74,86.18,140.61,351.53,Single-ply,SBD,M
Boys,74.84,17,Nhat Nguyen,Boerne Champion,68.67,136.08,68.04,142.88,347,Single-ply,SBD,M
Boys,74.84,18,Michael Gutierrez,Rocksprings,69.44,127.01,74.84,142.88,344.73,Single-ply,SBD,M
Boys,74.84,19,Mann Alden,Wimberley,70.49,113.4,86.18,145.15,344.73,Single-ply,SBD,M
Boys,74.84,20,Alex Ochiuzzi,Floresville,71.67,136.08,79.38,124.74,340.19,Single-ply,SBD,M
Boys,74.84,21,David Salazar,San Antonio Highlands,70.76,138.35,,192.78,331.12,Single-ply,SD,M
Boys,74.84,22,Rey Lopez,San Antonio Southside,71.21,124.74,68.04,131.54,324.32,Single-ply,SBD,M
Boys,74.84,23,Jake Estrada,Lytle,67.9,124.74,61.23,136.08,322.05,Single-ply,SBD,M
Boys,74.84,24,Carlos Ruiz,Uvalde,69.99,145.15,,142.88,288.03,Single-ply,SD,M
Boys,74.84,25,David Enriquez,San Antonio Highlands,74.39,74.84,68.04,129.27,272.16,Single-ply,SBD,M
Boys,74.84,26,Tommy Hyatt,Lytle,72.76,97.52,56.7,115.67,269.89,Single-ply,SBD,M
Boys,74.84,DQ,Jacob Sul,Lytle,74.84,,,,,Single-ply,SBD,M
Boys,74.84,DQ,Benny Rodriguez,Lytle,74.84,,,,,Single-ply,SBD,M
Boys,74.84,DQ,Rueben Hinojosa,Lytle,74.84,,,,,Single-ply,SBD,M
Boys,74.84,DQ,Wilson Trinity,Wimberley,72.57,,,,,Single-ply,SBD,M
Boys,82.1,1,Mathew Tirk,Kyle Lehman,82.1,213.19,129.27,199.58,542.04,Single-ply,SBD,M
Boys,82.1,2,Jacob Fortier,La Vernia,82.1,195.04,127.01,210.92,532.97,Single-ply,SBD,M
Boys,82.1,3,Bryce Dunman,Comal Canyon,78.47,217.72,120.2,192.78,530.7,Single-ply,SBD,M
Boys,82.1,4,Jacob Fernandez,Natalia,82.1,197.31,122.47,210.92,530.7,Single-ply,SBD,M
Boys,82.1,5,Borneman Chezz,Wimberley,81.15,179.17,136.08,190.51,505.76,Single-ply,SBD,M
Boys,82.1,6,David Armendariz,La Vernia,75.75,197.31,102.06,183.7,483.08,Single-ply,SBD,M
Boys,82.1,7,Peyton Smith,Comal Canyon,76.11,197.31,97.52,176.9,471.74,Single-ply,SBD,M
Boys,82.1,8,Joey Gauna,Floresville,78.11,181.44,99.79,181.44,462.66,Single-ply,SBD,M
Boys,82.1,9,Justin Roberson,San Antonio Southside,80.33,199.58,102.06,158.76,460.4,Single-ply,SBD,M
Boys,82.1,10,Daniel Prado,San Antonio Southside,82.1,204.12,113.4,142.88,460.4,Single-ply,SBD,M
Boys,82.1,11,William Bookout,Lytle,78.29,145.15,113.4,183.7,442.25,Single-ply,SBD,M
Boys,82.1,12,Chris Cerda,Kyle Lehman,80.38,167.83,104.33,161.03,433.18,Single-ply,SBD,M
Boys,82.1,13,Matt Silbas,Kyle Lehman,79.61,149.69,102.06,170.1,421.84,Single-ply,SBD,M
Boys,82.1,14,Ethan Martin,Kyle Lehman,79.15,151.95,92.99,174.63,419.57,Single-ply,SBD,M
Boys,82.1,15,Javier Garcia #4,seguin,82.1,138.35,90.72,172.37,401.43,Single-ply,SBD,M
Boys,82.1,16,Greg Rivas,Floresville,77.52,129.27,102.06,167.83,399.16,Single-ply,SBD,M
Boys,82.1,17,Dekota Nolte,seguin,79.56,142.88,83.91,172.37,399.16,Single-ply,SBD,M
Boys,82.1,18,Travis Smith,seguin,79.15,120.2,65.77,142.88,328.85,Single-ply,SBD,M
Boys,82.1,19,Bobby Petmicky,Kyle Lehman,81.51,95.25,61.23,142.88,299.37,Single-ply,SBD,M
Boys,82.1,DQ,Josh Valdarama,Boerne Champion,80.15,,,,,Single-ply,SBD,M
Boys,82.1,DQ,Ray Martinez,La Vernia,82.1,,,,,Single-ply,SBD,M
Boys,89.81,1,Ian Bell,Comal Canyon,88.5,308.44,156.49,306.17,771.11,Single-ply,SBD,M
Boys,89.81,2,Daniel Salazar,San Antonio Southside,89.13,226.8,142.88,199.58,569.26,Single-ply,SBD,M
Boys,89.81,3,Brandon Yates,Comal Canyon,84.96,204.12,136.08,197.31,537.51,Single-ply,SBD,M
Boys,89.81,4,Brandon Fuentes,Pleasanton,89.36,197.31,136.08,183.7,517.1,Single-ply,SBD,M
Boys,89.81,5,Jesse Baker,seguin,89.04,181.44,124.74,188.24,494.42,Single-ply,SBD,M
Boys,89.81,6,Jonathan Ramos,San Antonio Southside,86.23,172.37,131.54,170.1,474,Single-ply,SBD,M
Boys,89.81,7,Domingo Flores,San Antonio Highlands,85.23,142.88,97.52,158.76,399.16,Single-ply,SBD,M
Boys,89.81,8,Colton Jenkins,seguin,84.91,142.88,86.18,156.49,385.55,Single-ply,SBD,M
Boys,89.81,9,Dalton Mahac,Northside Holmes,83.1,142.88,88.45,142.88,374.21,Single-ply,SBD,M
Boys,89.81,10,Carlos Carrillo,Lytle,85.59,124.74,77.11,145.15,347,Single-ply,SBD,M
Boys,89.81,11,Jesse Jaquez,Uvalde,89.31,124.74,83.91,127.01,335.66,Single-ply,SBD,M
Boys,89.81,DQ,Schindler Joe,Wimberley,89.81,,,,,Single-ply,SBD,M
Boys,89.81,DQ,Esteban Ferdin,Lytle,89.81,,,,,Single-ply,SBD,M
Boys,89.81,DQ,Adrian Guardiola,Lytle,89.81,,,,,Single-ply,SBD,M
Boys,99.79,1,David Garza,Kyle Lehman,91.58,258.55,176.9,242.67,678.12,Single-ply,SBD,M
Boys,99.79,2,Tayler Hearn,Pleasanton,99.74,215.46,129.27,213.19,557.92,Single-ply,SBD,M
Boys,99.79,3,Miles Dixon,seguin,91.26,204.12,115.67,222.26,542.04,Single-ply,SBD,M
Boys,99.79,4,George Pena,Northside Holmes,92.12,206.38,120.2,201.85,528.44,Single-ply,SBD,M
Boys,99.79,5,Cody Brown #8,San Antonio Southside,98.43,188.24,111.13,226.8,526.17,Single-ply,SBD,M
Boys,99.79,6,Louis Herrera,La Vernia,96.62,190.51,129.27,201.85,521.63,Single-ply,SBD,M
Boys,99.79,7,Chris Carpenter #3,seguin,93.21,204.12,131.54,183.7,519.36,Single-ply,SBD,M
Boys,99.79,8,Nathan Cervantez,San Antonio Highlands,96.89,170.1,113.4,219.99,503.49,Single-ply,SBD,M
Boys,99.79,9,Garrett Mangold,Boerne Champion,90.45,165.56,129.27,174.63,469.47,Single-ply,SBD,M
Boys,99.79,10,Josh Smith #25,Pleasanton,92.67,190.51,102.06,174.63,467.2,Single-ply,SBD,M
Boys,99.79,11,Kevin Ibanez,Kyle Lehman,94.3,185.97,99.79,172.37,458.13,Single-ply,SBD,M
Boys,99.79,12,Richard Porche,Kyle Lehman,97.66,172.37,120.2,165.56,458.13,Single-ply,SBD,M
Boys,99.79,13,Omar Martinez,Lytle,97.89,172.37,99.79,163.29,435.45,Single-ply,SBD,M
Boys,99.79,14,Matt Molina,San Antonio Highlands,97.16,145.15,108.86,167.83,421.84,Single-ply,SBD,M
Boys,99.79,15,Mundo Perez,Rocksprings,96.98,154.22,99.79,163.29,417.3,Single-ply,SBD,M
Boys,99.79,16,Jonathon Mendoza,Northside Holmes,96.48,129.27,88.45,151.95,369.68,Single-ply,SBD,M
Boys,99.79,17,Michael Guerrero,Uvalde,92.67,136.08,77.11,149.69,362.87,Single-ply,SBD,M
Boys,99.79,18,Brad Reilly,Pleasanton,90.31,136.08,68.04,147.42,351.53,Single-ply,SBD,M
Boys,99.79,19,Richard Juarez,San Antonio Highlands,93.21,149.69,,172.37,322.05,Single-ply,SD,M
Boys,99.79,20,Jose Lopez,Boerne Champion,99.79,111.13,74.84,136.08,322.05,Single-ply,SBD,M
Boys,99.79,DQ,Rob Davis,Boerne Champion,99.79,,,,,Single-ply,SBD,M
Boys,99.79,DQ,Juan DeLeon,San Antonio Southside,99.79,,,,,Single-ply,SBD,M
Boys,99.79,DQ,Zac Garcia,Pleasanton,99.79,,,,,Single-ply,SBD,M
Boys,109.77,1,Xavier Spurlock,Rocksprings,101.15,161.03,106.59,147.42,415.04,Single-ply,SBD,M
Boys,109.77,2,Orlando Banda,Kyle Lehman,109.77,244.94,149.69,,394.63,Single-ply,SB,M
Boys,109.77,3,Russell Lualemaga,Uvalde,105.41,226.8,111.13,226.8,564.72,Single-ply,SBD,M
Boys,109.77,4,Justin Rosas,Floresville,107.09,204.12,136.08,213.19,553.38,Single-ply,SBD,M
Boys,109.77,5,Robert Huitron,San Antonio Southside,105.41,219.99,120.2,183.7,523.9,Single-ply,SBD,M
Boys,109.77,6,Skylar Richter,Boerne Champion,104.6,204.12,111.13,183.7,498.95,Single-ply,SBD,M
Boys,109.77,7,Zac Brooks,Pleasanton,107.18,185.97,86.18,181.44,453.59,Single-ply,SBD,M
Boys,109.77,8,Irving Tejada,San Antonio Highlands,105.05,158.76,108.86,172.37,439.98,Single-ply,SBD,M
Boys,109.77,9,Andres Magallanez,San Antonio Highlands,109.77,142.88,102.06,190.51,435.45,Single-ply,SBD,M
Boys,109.77,10,Ricky Morales,San Antonio Highlands,106.41,117.93,104.33,140.61,362.87,Single-ply,SBD,M
Boys,109.77,11,Frank Hernandez,Pleasanton,101.92,129.27,77.11,138.35,344.73,Single-ply,SBD,M
Boys,109.77,12,Leonard Gaona,San Antonio Highlands,106.59,120.2,70.31,120.2,310.71,Single-ply,SBD,M
Boys,109.77,13,Mike Lopez,San Antonio Highlands,106.64,149.69,,,149.69,Single-ply,S,M
Boys,109.77,DQ,Erik Elizondo,San Antonio Highlands,109.77,,,,,Single-ply,S,M
Boys,124.74,1,Owen Rathburn,Comal Canyon,121.79,258.55,154.22,235.87,648.64,Single-ply,SBD,M
Boys,124.74,2,Albert Mata,San Antonio Southside,114.03,254.01,151.95,226.8,632.76,Single-ply,SBD,M
Boys,124.74,3,Vincent Lee,Northside Holmes,119.39,249.48,154.22,226.8,630.49,Single-ply,SBD,M
Boys,124.74,4,Reynaldo Medina,San Antonio Southside,115.94,249.48,158.76,217.72,625.96,Single-ply,SBD,M
Boys,124.74,5,William Cavanaugh,Comal Canyon,122.47,229.06,142.88,226.8,598.74,Single-ply,SBD,M
Boys,124.74,6,Kenny Higgins,Kyle Lehman,120.11,226.8,129.27,219.99,576.06,Single-ply,SBD,M
Boys,124.74,7,Javier Paredes,Natalia,114.53,226.8,117.93,226.8,571.53,Single-ply,SBD,M
Boys,124.74,8,Chris Rocha,Floresville,112.81,226.8,142.88,192.78,562.45,Single-ply,SBD,M
Boys,124.74,9,Tommy Kosob,La Vernia,120.11,197.31,124.74,204.12,526.17,Single-ply,SBD,M
Boys,124.74,10,Leo Rodriguez,Northside Holmes,116.71,165.56,106.59,204.12,476.27,Single-ply,SBD,M
Boys,124.74,11,Emmitt Spurlock,Rocksprings,112.49,167.83,124.74,181.44,474,Single-ply,SBD,M
Boys,124.74,12,Cleto Garcia,Rocksprings,123.83,179.17,104.33,181.44,464.93,Single-ply,SBD,M
Boys,124.74,13,Michael Warmke,Comal Canyon,113.85,174.63,102.06,170.1,446.79,Single-ply,SBD,M
Boys,124.74,14,Gabe Garcia,San Antonio Highlands,114.85,147.42,102.06,192.78,442.25,Single-ply,SBD,M
Boys,124.74,15,Rudy Hernandez,San Antonio Highlands,110.86,158.76,104.33,167.83,430.91,Single-ply,SBD,M
Boys,124.74,16,Raul Loza,Natalia,113.72,183.7,88.45,158.76,430.91,Single-ply,SBD,M
Boys,124.74,17,Alex Maltos,Rocksprings,114.76,147.42,97.52,142.88,387.82,Single-ply,SBD,M
Boys,124.74,18,Alex Hernandez #19,Lytle,120.66,140.61,97.52,138.35,376.48,Single-ply,SBD,M
Boys,124.74+,1,Mark Menchaca,Uvalde,134.54,247.21,124.74,238.14,610.08,Single-ply,SBD,M
Boys,124.74+,2,Nykiren Wellington,Northside Holmes,131.54,226.8,115.67,260.82,603.28,Single-ply,SBD,M
Boys,124.74+,3,Joe Jimenez,San Antonio Highlands,125.6,249.48,113.4,204.12,566.99,Single-ply,SBD,M
Boys,124.74+,4,Blake Griffith,Floresville,126.82,226.8,115.67,192.78,535.24,Single-ply,SBD,M
Boys,124.74+,5,Michael Reyes,Natalia,128.82,210.92,124.74,188.24,523.9,Single-ply,SBD,M
Boys,124.74+,6,James Ximenez,Northside Holmes,130.68,183.7,83.91,208.65,476.27,Single-ply,SBD,M
Boys,124.74+,7,Zack Wright,San Antonio Highlands,136.44,197.31,97.52,181.44,476.27,Single-ply,SBD,M
Boys,124.74+,8,Eric Falcon,Northside Holmes,139.71,154.22,83.91,174.63,412.77,Single-ply,SBD,M
Boys,124.74+,9,Henry Zamora,Uvalde,127.69,272.16,124.74,,396.89,Single-ply,SB,M
