Division,WeightClassKg,Place,Name,Team,BodyweightKg,Best3SquatKg,Best3BenchKg,Best3DeadliftKg,TotalKg,Equipment,Event,Sex
Boys,51.71,1,Dean Lewis,La Vernia,50.94,124.74,77.11,133.81,335.66,Single-ply,SBD,M
Boys,51.71,2,Arturo Alejandro,San Antonio Highlands,50.35,90.72,68.04,136.08,294.84,Single-ply,SBD,M
Boys,51.71,3,Hunter Harwood,Comal Canyon,49.08,90.72,58.97,106.59,256.28,Single-ply,SBD,M
Boys,51.71,4,Joel Rodriquez,Castroville Medina Valley,50.85,81.65,72.57,102.06,256.28,Single-ply,SBD,M
Boys,51.71,5,Josh Ramirez,Kyle Lehman,50.62,83.91,56.7,111.13,251.74,Single-ply,SBD,M
Boys,51.71,6,Angel Gomez,Comal Canyon,47.67,88.45,52.16,90.72,231.33,Single-ply,SBD,M
Boys,59.87,1,Brandon Alford,Kyle Lehman,55.97,136.08,72.57,172.37,381.02,Single-ply,SBD,M
Boys,55.79,2,Gino Sciarrafala,Comal Canyon,54.7,117.93,74.84,133.81,326.59,Single-ply,SBD,M
Boys,55.79,3,Cole Jackson,San Antonio Southside,55.75,129.27,61.23,136.08,326.59,Single-ply,SBD,M
Boys,59.87,4,Benito Flores,San Antonio Southside,55.93,102.06,52.16,142.88,297.1,Single-ply,SBD,M
Boys,59.87,5,Juan Guerrero,Lytle,55.84,95.25,56.7,113.4,265.35,Single-ply,SBD,M
Boys,55.79,6,Cameron Smith #9,Rocksprings,54.52,90.72,52.16,113.4,256.28,Single-ply,SBD,M
Boys,55.79,7,Jesus Garcia #10,Somerset,54.16,79.38,56.7,95.25,231.33,Single-ply,SBD,M
Boys,55.79,DQ,Josh Lomas,Crystal City,53.57,120.2,65.77,,,Single-ply,SBD,M
Boys,59.87,1,Jacob Torres,Kyle Lehman,59.33,138.35,99.79,172.37,410.5,Single-ply,SBD,M
Boys,59.87,2,Caleb Gale,Somerset,59.33,145.15,79.38,163.29,387.82,Single-ply,SBD,M
Boys,59.87,3,Cameron Baird,Kyle Lehman,59.56,140.61,70.31,158.76,369.68,Single-ply,SBD,M
Boys,59.87,4,Caleel Turner,Comal Canyon,58.79,149.69,61.23,149.69,360.61,Single-ply,SBD,M
Boys,59.87,5,Rudy Martinez,Kyle Lehman,58.69,113.4,77.11,154.22,344.73,Single-ply,SBD,M
Boys,59.87,6,Lorenzo Flores,La Vernia,56.61,117.93,81.65,142.88,342.46,Single-ply,SBD,M
Boys,59.87,7,Steven Cervantes,San Antonio Highlands,59.38,122.47,83.91,133.81,340.19,Single-ply,SBD,M
Boys,67.13,8,Grayson Elrod,Blanco,60.06,120.2,88.45,120.2,328.85,Single-ply,SBD,M
Boys,59.87,9,Adrian Valdez,Lytle,59.78,92.99,74.84,117.93,285.76,Single-ply,SBD,M
Boys,67.13,DQ,Joseph Gonzales,San Antonio Highlands,60.06,,,140.61,,Single-ply,SBD,M
Boys,67.13,DQ,Russell Reynolds,Kyle Lehman,60.1,77.11,,104.33,,Single-ply,SBD,M
Boys,67.13,1,Peter Webre,Comal Canyon,65.86,183.7,111.13,195.04,489.88,Single-ply,SBD,M
Boys,67.13,2,Jonathan Ibarra,Somerset,61.64,183.7,83.91,165.56,433.18,Single-ply,SBD,M
Boys,67.13,3,Andrew Harris,San Antonio Southside,66.32,170.1,90.72,165.56,426.38,Single-ply,SBD,M
Boys,74.84,4,Arturo Cervantez,Crystal City,67.22,165.56,90.72,170.1,426.38,Single-ply,SBD,M
Boys,67.13,5,Colin Gillis,Dripping Springs,66.95,165.56,92.99,165.56,424.11,Single-ply,SBD,M
Boys,67.13,6,Brandon Scott #4,Kyle Lehman,62.32,138.35,83.91,172.37,394.63,Single-ply,SBD,M
Boys,67.13,7,Ty Henk,Comal Canyon,62.69,147.42,74.84,151.95,374.21,Single-ply,SBD,M
Boys,67.13,8,Tyler Stephens,Universal City Randolph,66.77,127.01,79.38,142.88,349.27,Single-ply,SBD,M
Boys,67.13,9,Tim Stsoaltbeck,Blanco,64.82,142.88,79.38,124.74,347,Single-ply,SBD,M
Boys,67.13,10,Richard Smith,Kyle Lehman,65.18,120.2,72.57,154.22,347,Single-ply,SBD,M
Boys,67.13,11,Trever Horvath,Castroville Medina Valley,61.87,136.08,86.18,120.2,342.46,Single-ply,SBD,M
Boys,67.13,12,Walker McCandrew,Universal City Randolph,63.32,113.4,79.38,142.88,335.66,Single-ply,SBD,M
Boys,67.13,13,Caleb Leger,Blanco,65.27,117.93,79.38,124.74,322.05,Single-ply,SBD,M
Boys,67.13,14,Jacob Rodriguez,Crystal City,61.46,131.54,63.5,122.47,317.51,Single-ply,SBD,M
Boys,67.13,15,Juan Avila,San Antonio Southside,65.59,113.4,61.23,117.93,292.57,Single-ply,SBD,M
Boys,67.13,16,Taylor Carrillo,Lytle,60.69,97.52,63.5,129.27,290.3,Single-ply,SBD,M
Boys,67.13,17,Rogelio Fuentes,Somerset,63.82,72.57,70.31,129.27,272.16,Single-ply,SBD,M
Boys,67.13,18,Kyle Adair,Dripping Springs,63.37,108.86,61.23,,170.1,Single-ply,SB,M
Boys,74.84,DQ,Feliciano Delgadillo,San Antonio Southside,67.22,192.78,,,,Single-ply,SB,M
Boys,74.84,1,Del Ryan Alvarez,Somerset,71.89,183.7,108.86,190.51,483.08,Single-ply,SBD,M
Boys,74.84,2,Jon Frasier,Kyle Lehman,72.03,172.37,122.47,188.24,483.08,Single-ply,SBD,M
Boys,74.84,3,Andrew Martinez,Somerset,70.58,142.88,122.47,183.7,449.06,Single-ply,SBD,M
Boys,74.84,4,Rueben Hinojosa,Lytle,74.48,163.29,88.45,181.44,433.18,Single-ply,SBD,M
Boys,74.84,5,David Salazar,San Antonio Highlands,69.81,136.08,102.06,185.97,424.11,Single-ply,SBD,M
Boys,74.84,6,Lonnie Overturf,Comal Canyon,70.13,163.29,88.45,172.37,424.11,Single-ply,SBD,M
Boys,74.84,7,Daniel Yanez,Lytle,71.17,145.15,97.52,158.76,401.43,Single-ply,SBD,M
Boys,74.84,8,Vince Zaragosa,San Antonio Highlands,73.8,129.27,81.65,181.44,392.36,Single-ply,SBD,M
Boys,74.84,9,Armando Delarosa,Somerset,71.94,142.88,90.72,147.42,381.02,Single-ply,SBD,M
Boys,74.84,10,Jeremy Rodriquez,Kyle Lehman,70.99,124.74,92.99,158.76,376.48,Single-ply,SBD,M
Boys,74.84,11,Will Perrin,Universal City Randolph,72.17,136.08,74.84,145.15,356.07,Single-ply,SBD,M
Boys,74.84,12,Jake Estrada,Lytle,68.08,117.93,72.57,129.27,319.78,Single-ply,SBD,M
Boys,74.84,13,Nhat Nuyugen,Boerne Champion,68.17,113.4,65.77,131.54,310.71,Single-ply,SBD,M
Boys,74.84,14,Jacob Sul,Lytle,69.44,117.93,68.04,120.2,306.17,Single-ply,SBD,M
Boys,74.84,15,Rey Lopez,San Antonio Southside,70.81,113.4,72.57,111.13,297.1,Single-ply,SBD,M
Boys,74.84,16,Emilio Patlan,Lytle,67.95,99.79,77.11,108.86,285.76,Single-ply,SBD,M
Boys,74.84,17,Tommy Hyatt,Lytle,72.8,86.18,58.97,106.59,251.74,Single-ply,SBD,M
Boys,74.84,DQ,David Burns,Dripping Springs,74.53,142.88,86.18,,,Single-ply,SBD,M
Boys,82.1,1,Jeff Moreno,Comal Canyon,75.75,213.19,102.06,219.99,535.24,Single-ply,SBD,M
Boys,82.1,2,Matthew Tirk,Kyle Lehman,81.87,210.92,124.74,199.58,535.24,Single-ply,SBD,M
Boys,89.81,3,Brandon Yates,Comal Canyon,82.26,183.7,129.27,204.12,517.1,Single-ply,SBD,M
Boys,82.1,4,Kory Kuhl,Universal City Randolph,81.37,181.44,104.33,204.12,489.88,Single-ply,SBD,M
Boys,82.1,5,Layton Dworasyzk,Blanco,79.61,172.37,111.13,199.58,483.08,Single-ply,SBD,M
Boys,82.1,6,David Armendariz,La Vernia,77.47,190.51,102.06,188.24,480.81,Single-ply,SBD,M
Boys,82.1,7,Bryce Dunman,Comal Canyon,77.11,190.51,97.52,188.24,476.27,Single-ply,SBD,M
Boys,82.1,8,Justin Roberson,San Antonio Southside,79.02,192.78,92.99,165.56,451.32,Single-ply,SBD,M
Boys,82.1,9,Peyton Smith,Comal Canyon,76.2,170.1,95.25,183.7,449.06,Single-ply,SBD,M
Boys,82.1,10,Jonathan Alvarado,Somerset,76.25,165.56,92.99,174.63,433.18,Single-ply,SBD,M
Boys,82.1,11,William Bookout,Lytle,81.15,133.81,111.13,176.9,421.84,Single-ply,SBD,M
Boys,89.81,12,Andre Hamilton,Universal City Randolph,82.17,156.49,88.45,172.37,417.3,Single-ply,SBD,M
Boys,82.1,13,Tanner Rogers,Blanco,81.87,156.49,97.52,158.76,412.77,Single-ply,SBD,M
Boys,82.1,14,Ethan Martin,Kyle Lehman,80.51,136.08,86.18,167.83,390.09,Single-ply,SBD,M
Boys,82.1,15,Raymond Garcia,Somerset,78.11,147.42,90.72,142.88,381.02,Single-ply,SBD,M
Boys,82.1,16,Matt Silbas,Kyle Lehman,78.02,136.08,86.18,149.69,371.95,Single-ply,SBD,M
Boys,82.1,17,Brittain Wagne,Blanco,81.19,124.74,83.91,145.15,353.8,Single-ply,SBD,M
Boys,82.1,18,Austin Block,Karnes City,80.78,113.4,63.5,115.67,292.57,Single-ply,SBD,M
Boys,82.1,19,Bobby Petmickey,Kyle Lehman,80.38,90.72,61.23,136.08,288.03,Single-ply,SBD,M
Boys,82.1,20,Weston Block,Karnes City,78.18,108.86,58.97,106.59,274.42,Single-ply,SBD,M
Boys,82.1,DQ,Logan Jones,Castroville Medina Valley,81.19,147.42,,,,Single-ply,SBD,M
Boys,89.81,DQ,Robert Duenes,Karnes City,82.3,124.74,,147.42,,Single-ply,SBD,M
Boys,82.1,DQ,Ben Bateman,Dripping Springs,80.51,108.86,,,,Single-ply,SBD,M
Boys,82.1,DQ,Richard Pena,San Antonio Southside,79.7,,,,,Single-ply,SBD,M
Boys,89.81,1,Ian Bell,Comal Canyon,86.64,301.64,151.95,294.84,748.43,Single-ply,SBD,M
Boys,89.81,2,Daniel Salazar,San Antonio Southside,88.86,226.8,142.88,195.04,564.72,Single-ply,SBD,M
Boys,89.81,3,Jacob Fortier,La Vernia,83.87,204.12,136.08,210.92,551.11,Single-ply,SBD,M
Boys,89.81,4,Franco Guaderrama,San Antonio Highlands,87.48,183.7,108.86,192.78,485.34,Single-ply,SBD,M
Boys,89.81,5,Jonathan Ramos,San Antonio Southside,85.64,170.1,131.54,167.83,469.47,Single-ply,SBD,M
Boys,89.81,6,Zach Foreman,Dripping Springs,84.37,172.37,108.86,172.37,453.59,Single-ply,SBD,M
Boys,89.81,7,Brandon Polk,Dripping Springs,87.5,165.56,104.33,183.7,453.59,Single-ply,SBD,M
Boys,89.81,8,Garrett Mangold,Boerne Champion,89.04,165.56,117.93,170.1,453.59,Single-ply,SBD,M
Boys,89.81,9,Adrian Guardiola,Lytle,85.68,165.56,102.06,172.37,439.98,Single-ply,SBD,M
Boys,89.81,10,Domingo Flores,San Antonio Highlands,83.82,142.88,92.99,158.76,394.63,Single-ply,SBD,M
Boys,89.81,11,Lawrence Carrasco,Karnes City,86.45,102.06,92.99,181.44,376.48,Single-ply,SBD,M
Boys,89.81,12,Justin Quesada,Somerset,84.46,136.08,88.45,142.88,367.41,Single-ply,SBD,M
Boys,89.81,13,Mathew Garcia,Somerset,84.5,136.08,72.57,158.76,367.41,Single-ply,SBD,M
Boys,89.81,14,Austin Metzger,Universal City Randolph,84.46,136.08,83.91,140.61,360.61,Single-ply,SBD,M
Boys,89.81,15,Kyle Wehe,Castroville Medina Valley,84.78,136.08,77.11,142.88,356.07,Single-ply,SBD,M
Boys,89.81,16,Cody Perez,Blanco,83.87,124.74,54.43,133.81,312.98,Single-ply,SBD,M
Boys,89.81,17,Raymond Vaught,San Antonio Highlands,83.14,92.99,58.97,158.76,310.71,Single-ply,SBD,M
Boys,89.81,18,Richard Juarez,San Antonio Highlands,89.4,122.47,92.99,,215.46,Single-ply,SB,M
Boys,89.81,DQ,Casey Benavidez,Somerset,86.18,,,,,Single-ply,SB,M
Boys,89.81,DQ,Steven Kittle,Dripping Springs,86.82,165.56,,,,Single-ply,SB,M
Boys,99.79,DQ,Suan Rios,Crystal City,90.02,,83.91,151.95,,Single-ply,SBD,M
Boys,99.79,1,David Garza,Kyle Lehman,90.54,244.94,174.63,235.87,655.44,Single-ply,SBD,M
Boys,99.79,2,Charles Armstrong,Somerset,96.93,233.6,149.69,204.12,587.4,Single-ply,SBD,M
Boys,99.79,3,Leonard Arranda,Somerset,95.55,213.19,136.08,219.99,569.26,Single-ply,SBD,M
Boys,99.79,4,Victor Jimenez,Crystal City,96.21,183.7,129.27,204.12,517.1,Single-ply,SBD,M
Boys,99.79,5,Taylor Jones #4,Castroville Medina Valley,97.66,170.1,124.74,201.85,496.68,Single-ply,SBD,M
Boys,99.79,6,Louis Herrera,La Vernia,95.07,174.63,124.74,192.78,492.15,Single-ply,SBD,M
Boys,99.79,7,Salvador Marines,Somerset,95.71,158.76,106.59,226.8,492.15,Single-ply,SBD,M
Boys,99.79,8,Hector Perez,Crystal City,98.57,197.31,102.06,192.78,492.15,Single-ply,SBD,M
Boys,99.79,9,Austin Adams,Karnes City,90.76,183.7,106.59,183.7,474,Single-ply,SBD,M
Boys,99.79,10,Josh Guarnero,Castroville Medina Valley,94.44,167.83,120.2,147.42,435.45,Single-ply,SBD,M
Boys,99.79,11,Richard Porche,Kyle Lehman,97.34,142.88,120.2,170.1,433.18,Single-ply,SBD,M
Boys,99.79,12,Kevin Ibanez,Kyle Lehman,93.89,172.37,95.25,158.76,426.38,Single-ply,SBD,M
Boys,99.79,13,Eric Perez,Somerset,98.66,158.76,92.99,174.63,426.38,Single-ply,SBD,M
Boys,99.79,14,Matt Molina,San Antonio Highlands,95.89,136.08,106.59,161.03,403.7,Single-ply,SBD,M
Boys,99.79,15,Mundo Perez,Rocksprings,94.64,145.15,99.79,154.22,399.16,Single-ply,SBD,M
Boys,99.79,16,Jose Cisneros,Crystal City,92.08,140.61,70.31,158.76,369.68,Single-ply,SBD,M
Boys,99.79,17,Patrick Marley,Universal City Randolph,91.85,142.88,79.38,145.15,367.41,Single-ply,SBD,M
Boys,99.79,18,Mark Cerda,Somerset,92.15,136.08,74.84,151.95,362.87,Single-ply,SBD,M
Boys,99.79,DQ,Christian Guerra,Castroville Medina Valley,92.08,170.1,,,,Single-ply,SBD,M
Boys,99.79,DQ,Nathan Cervantes,San Antonio Highlands,93.76,,111.13,204.12,,Single-ply,SBD,M
Boys,109.77,1,Orlando Banda,Kyle Lehman,107.5,242.67,142.88,,385.55,Single-ply,SB,M
Boys,109.77,2,Robert Huitron,San Antonio Southside,103.87,204.12,129.27,183.7,517.1,Single-ply,SBD,M
Boys,109.77,3,Skylar Richter,Boerne Champion,103.24,199.58,106.59,181.44,487.61,Single-ply,SBD,M
Boys,109.77,4,Erik Elizondo,San Antonio Highlands,104.83,192.78,106.59,188.24,487.61,Single-ply,SBD,M
Boys,109.77,5,Larry Vidales,Somerset,105.71,195.04,97.52,188.24,480.81,Single-ply,SBD,M
Boys,109.77,6,Ian Coleman,Universal City Randolph,100.7,181.44,111.13,163.29,455.86,Single-ply,SBD,M
Boys,109.77,7,Cole Callaway,Universal City Randolph,107.12,156.49,124.74,149.69,430.91,Single-ply,SBD,M
Boys,109.77,8,Mike Lopez,San Antonio Highlands,103.65,147.42,97.52,181.44,426.38,Single-ply,SBD,M
Boys,109.77,9,Irving Tejada,San Antonio Highlands,103.99,158.76,102.06,165.56,426.38,Single-ply,SBD,M
Boys,109.77,10,Liam Murphy,Universal City Randolph,105.96,158.76,90.72,170.1,419.57,Single-ply,SBD,M
Boys,109.77,11,Jenaro Jackson,Universal City Randolph,100.74,147.42,83.91,165.56,396.89,Single-ply,SBD,M
Boys,109.77,12,Roland Bautisa,Lytle,103.37,140.61,97.52,151.95,390.09,Single-ply,SBD,M
Boys,109.77,13,Xavier Spurlock,Rocksprings,100.61,147.42,102.06,136.08,385.55,Single-ply,SBD,M
Boys,109.77,14,Lucas Janysek,Karnes City,107.77,111.13,74.84,124.74,310.71,Single-ply,SBD,M
Boys,109.77,15,Leonard Gaona,San Antonio Highlands,106,79.38,70.31,117.93,267.62,Single-ply,SBD,M
Boys,109.77,DQ,Rob Davis,Boerne Champion,107.64,167.83,97.52,,,Single-ply,SBD,M
Boys,124.74,1,Brandon Rodriguez,Somerset,117.34,317.51,136.08,249.48,703.07,Single-ply,SBD,M
Boys,124.74,2,Owen Rathburn,Comal Canyon,120.11,249.48,145.15,226.8,621.42,Single-ply,SBD,M
Boys,124.74,3,Henry Greathouse,Blanco,123.15,240.4,154.22,226.8,621.42,Single-ply,SBD,M
Boys,124.74,4,Albert Mata,San Antonio Southside,116.26,251.74,158.76,206.38,616.89,Single-ply,SBD,M
Boys,124.74,5,Jose Alvarado #4,Somerset,112.4,249.48,127.01,204.12,580.6,Single-ply,SBD,M
Boys,124.74,6,Will Cavanaugh,Comal Canyon,119.57,210.92,147.42,201.85,560.19,Single-ply,SBD,M
Boys,124.74,7,Angel Garza,Somerset,122.74,215.46,115.67,226.8,557.92,Single-ply,SBD,M
Boys,124.74,8,Tanner Sanchez,Blanco,118,238.14,113.4,201.85,553.38,Single-ply,SBD,M
Boys,124.74,9,Alfred Godines,Somerset,110.84,206.38,142.88,195.04,544.31,Single-ply,SBD,M
Boys,124.74,10,John Mendoza,Karnes City,117.66,192.78,136.08,201.85,530.7,Single-ply,SBD,M
Boys,124.74,11,Kenny Higgins,Kyle Lehman,117.75,204.12,129.27,183.7,517.1,Single-ply,SBD,M
Boys,124.74,12,Joseph Barkley,Karnes City,123.45,201.85,102.06,197.31,501.22,Single-ply,SBD,M
Boys,124.74,13,Emmitt Spurlock,Rocksprings,111.18,163.29,124.74,158.76,446.79,Single-ply,SBD,M
Boys,124.74,14,Gabe Garcia,San Antonio Highlands,113.67,151.95,102.06,185.97,439.98,Single-ply,SBD,M
Boys,124.74,15,Alex Maltos,Rocksprings,112.04,113.4,95.25,142.88,351.53,Single-ply,SBD,M
Boys,124.74,16,Russell Ashmore,Castroville Medina Valley,112.17,124.74,74.84,145.15,344.73,Single-ply,SBD,M
Boys,124.74,17,Michael Friga,Dripping Springs,110.5,136.08,68.04,113.4,317.51,Single-ply,SBD,M
Boys,124.74,DQ,Michael Warmke,Comal Canyon,112.58,158.76,,,,Single-ply,SBD,M
Boys,124.74+,1,Victor Buitrago,La Vernia,128.23,272.16,185.97,229.06,687.19,Single-ply,SBD,M
Boys,124.74+,2,Joe Jimenez,San Antonio Highlands,127.05,238.14,124.74,219.99,582.87,Single-ply,SBD,M
Boys,124.74+,3,Abraham Jimenez,Somerset,125.19,249.48,136.08,181.44,566.99,Single-ply,SBD,M
Boys,124.74+,4,Zack Pawelek,Karnes City,131.54,165.56,92.99,181.44,439.98,Single-ply,SBD,M
Boys,124.74+,DQ,Johnny Limon,Kyle Lehman,136.98,170.1,106.59,,,Single-ply,SBD,M
Boys,,NS,Rico Cortez,Karnes City,,,,,,Single-ply,SBD,M
Boys,,NS,Brandon Gilley,Karnes City,,,,,,Single-ply,SBD,M
Boys,,NS,Daniel Prado,San Antonio Southside,,,,,,Single-ply,SBD,M
