Name,WeightClassKg,Sex,Best3SquatKg,Best3BenchKg,Best3DeadliftKg,TotalKg,Event,Equipment,Place,Division
Cherie Rigby,80,F,157.5,70,185,412.5,SBD,Single-ply,1,Open
A. Sceney,75,M,210,142.5,225,577.5,SBD,Single-ply,1,Open
L. Gordon,75,M,155,90,210,455,SBD,Single-ply,2,Open
G. Mong,82.5,M,140,80,205,425,SBD,Single-ply,1,Open
P. Pfeifer,110,M,190,162.5,255,607.5,SBD,Single-ply,1,Open
Julie Loomes,47.5,F,70,47.5,120,237.5,SBD,Wraps,1,Open
D. Pyle,90,M,200,120,190,510,SBD,Wraps,1,Open
Ivan Straga,110,M,150,160,230,540,SBD,Wraps,1,Open
Marty Girvan,125,M,240,160,300,700,SBD,Wraps,1,Open
