Division,WeightClassKg,Place,Name,Team,BodyweightKg,Best3SquatKg,Best3BenchKg,Best3DeadliftKg,TotalKg,Equipment,Event,Sex
Girls,44.23,1,Janet Becerril,Perryton,43.36,106.59,52.16,113.4,272.16,Single-ply,SBD,F
Girls,44.23,2,Jordan Ramirez #3,Levelland,41.1,99.79,40.82,104.33,244.94,Single-ply,SBD,F
Girls,44.23,3,Lexi Luera,Fort Stockton,44.18,79.38,27.22,92.99,199.58,Single-ply,SBD,F
Girls,44.23,4,Jaci Owen,Vernon,44.09,72.57,38.56,86.18,197.31,Single-ply,SBD,F
Girls,44.23,5,Aaliyah Sanchez,Monahans,43,74.84,36.29,83.91,195.04,Single-ply,SBD,F
Girls,44.23,6,Kenia Munoz,Andrews,44.09,68.04,34.02,90.72,192.78,Single-ply,SBD,F
Girls,44.23,7,Vanessa Garza,Vernon,42.82,70.31,34.02,83.91,188.24,Single-ply,SBD,F
Girls,44.23,8,Maribel Tavarez,Monahans,41.19,74.84,31.75,79.38,185.97,Single-ply,SBD,F
Girls,44.23,DQ,Jennifer Hernandez,Lamesa,35.56,61.23,29.48,70.31,,Single-ply,SBD,F
Girls,44.23,DQ,Serena Arce,Andrews,42.64,,,,,Single-ply,SBD,F
Girls,47.85,1,Madi Werner,Seminole,47.81,113.4,54.43,136.08,303.91,Single-ply,SBD,F
Girls,47.85,2,Taisha Rivera,Fort Stockton,47.17,90.72,56.7,122.47,269.89,Single-ply,SBD,F
Girls,47.85,3,Olivia Riley,Levelland,47.72,90.72,49.9,115.67,256.28,Single-ply,SBD,F
Girls,47.85,4,Brittany Hodges,Vernon,47.17,79.38,40.82,95.25,215.46,Single-ply,SBD,F
Girls,47.85,5,Katelyn Hogan,Monahans,46.63,81.65,40.82,88.45,210.92,Single-ply,SBD,F
Girls,47.85,6,Katlyn Combs,Monahans,47.72,74.84,31.75,92.99,199.58,Single-ply,SBD,F
Girls,47.85,7,Veronika Hernandez,Levelland,47.81,68.04,36.29,83.91,188.24,Single-ply,SBD,F
Girls,51.94,1,Karina Alvarado,Big Spring,50.89,102.06,54.43,122.47,278.96,Single-ply,SBD,F
Girls,51.94,2,Brittney Patterson,Andrews,51.17,97.52,43.09,122.47,263.08,Single-ply,SBD,F
Girls,51.94,3,April Torres,Fort Stockton,50.26,102.06,43.09,115.67,260.82,Single-ply,SBD,F
Girls,51.94,4,Maci French,Levelland,51.17,83.91,49.9,122.47,256.28,Single-ply,SBD,F
Girls,51.94,5,Brittany Espinoza,Seminole,50.62,90.72,47.63,115.67,254.01,Single-ply,SBD,F
Girls,51.94,6,Dannielle Brito,Monahans,49.8,83.91,47.63,102.06,233.6,Single-ply,SBD,F
Girls,51.94,7,Jennifer Cuellar,Andrews,50.17,86.18,34.02,111.13,231.33,Single-ply,SBD,F
Girls,51.94,8,Samantha Perez,Lamesa,50.26,97.52,47.63,83.91,229.06,Single-ply,SBD,F
Girls,51.94,9,Bianca Correa,Big Spring,51.62,81.65,40.82,106.59,229.06,Single-ply,SBD,F
Girls,51.94,10,Enissa Sanchez,Fort Stockton,50.35,83.91,38.56,83.91,206.38,Single-ply,SBD,F
Girls,51.94,DQ,Breanna Gonzales,Levelland,51.35,90.72,40.82,90.72,,Single-ply,SBD,F
Girls,51.94,DQ,Alyssa Flores,Snyder,51.44,106.59,49.9,,,Single-ply,SBD,F
Girls,56.02,1,Destany Munoz,Fort Stockton,54.43,120.2,52.16,129.27,301.64,Single-ply,SBD,F
Girls,56.02,2,Tyra Lemmons,Monahans,54.88,102.06,56.7,120.2,278.96,Single-ply,SBD,F
Girls,56.02,3,Sydney Perez,Monahans,54.07,115.67,47.63,111.13,274.42,Single-ply,SBD,F
Girls,56.02,4,Charlie Galindo,Midland Greenwood,54.25,102.06,54.43,115.67,272.16,Single-ply,SBD,F
Girls,56.02,5,Brianna Marquez,Monahans,55.25,104.33,49.9,117.93,272.16,Single-ply,SBD,F
Girls,56.02,6,Zaira Navarrete,Perryton,55.07,97.52,45.36,122.47,265.35,Single-ply,SBD,F
Girls,56.02,7,April Vargas,Levelland,54.98,86.18,54.43,122.47,263.08,Single-ply,SBD,F
Girls,56.02,8,Eternity Rodriguez,Lamesa,55.16,102.06,58.97,99.79,260.82,Single-ply,SBD,F
Girls,56.02,9,Elizabeth Mata,Fort Stockton,55.97,88.45,45.36,99.79,233.6,Single-ply,SBD,F
Girls,56.02,DQ,Kalin L'Esperance,Perryton,54.88,,,,,Single-ply,SBD,F
Girls,56.02,DQ,Amanda Rodriguez #1,Seminole,52.71,,,,,Single-ply,SBD,F
Girls,60.1,1,Raquel Singh,Fort Stockton,59.87,142.88,54.43,140.61,337.93,Single-ply,SBD,F
Girls,60.1,2,Becca Barron,Midland Greenwood,58.24,124.74,70.31,136.08,331.12,Single-ply,SBD,F
Girls,60.1,3,Symphony Munoz,Monahans,58.15,115.67,61.23,138.35,315.25,Single-ply,SBD,F
Girls,60.1,4,Leslie Tercero,Fort Stockton,59.6,122.47,47.63,120.2,290.3,Single-ply,SBD,F
Girls,60.1,5,Jessica Garcia,Lamesa,59.78,113.4,56.7,117.93,288.03,Single-ply,SBD,F
Girls,60.1,6,Peytton Gribble,Vernon,58.15,97.52,58.97,122.47,278.96,Single-ply,SBD,F
Girls,60.1,7,Victoria Carrasco,Monahans,58.06,99.79,45.36,106.59,251.74,Single-ply,SBD,F
Girls,60.1,DQ,Kristen Rocco,Dalhart,59.15,92.99,38.56,102.06,,Single-ply,SBD,F
Girls,60.1,DQ,Diamond Escobedo,Snyder,59.06,115.67,54.43,,,Single-ply,SBD,F
Girls,67.36,1,Brittany Kelly,Seminole,65.68,142.88,68.04,142.88,353.8,Single-ply,SBD,F
Girls,67.36,2,Krayah Langford,Levelland,66.22,127.01,74.84,147.42,349.27,Single-ply,SBD,F
Girls,67.36,3,Syrena Robles,Lamesa,63.59,136.08,63.5,138.35,337.93,Single-ply,SBD,F
Girls,67.36,4,Shawnee Wiseman,Pecos,66.86,120.2,58.97,127.01,306.17,Single-ply,SBD,F
Girls,67.36,5,Sam Gomez,Seminole,66.95,115.67,68.04,120.2,303.91,Single-ply,SBD,F
Girls,67.36,6,Alyssa Lozano,Fort Stockton,64.32,117.93,56.7,124.74,299.37,Single-ply,SBD,F
Girls,67.36,7,Anasia Fletcher,Monahans,63.87,122.47,49.9,124.74,297.1,Single-ply,SBD,F
Girls,67.36,8,Holli Smith,Levelland,66.13,99.79,68.04,129.27,297.1,Single-ply,SBD,F
Girls,67.36,9,Cassandra Villarreal,Fort Stockton,65.95,122.47,54.43,115.67,292.57,Single-ply,SBD,F
Girls,67.36,10,Brenda Benavente,Fort Stockton,62.87,108.86,45.36,122.47,276.69,Single-ply,SBD,F
Girls,67.36,DQ,Bethany Irons,Levelland,67.31,104.33,49.9,113.4,,Single-ply,SBD,F
Girls,67.36,DQ,Monica Alvidrez,Seminole,65.68,111.13,54.43,115.67,,Single-ply,SBD,F
Girls,67.36,DQ,Zaina Watson,Vernon,65.95,,,,,Single-ply,SBD,F
Girls,75.07,1,Raeana Mayo,Bushland,73.12,161.03,70.31,149.69,381.02,Single-ply,SBD,F
Girls,75.07,2,Abriana Murphy,Fort Stockton,74.66,154.22,68.04,151.95,374.21,Single-ply,SBD,F
Girls,75.07,3,Daniella Reyes,Lamesa,74.03,136.08,61.23,140.61,337.93,Single-ply,SBD,F
Girls,75.07,4,Vanessa Perez,Seminole,71.58,133.81,54.43,142.88,331.12,Single-ply,SBD,F
Girls,75.07,5,Ragan Holder,Andrews,70.03,122.47,52.16,136.08,310.71,Single-ply,SBD,F
Girls,75.07,6,Breena Read,Dalhart,73.12,117.93,56.7,136.08,310.71,Single-ply,SBD,F
Girls,75.07,7,Alhi Espinoza,Monahans,69.22,117.93,54.43,120.2,292.57,Single-ply,SBD,F
Girls,75.07,8,Georgina Benavides,Fort Stockton,73.21,124.74,52.16,113.4,290.3,Single-ply,SBD,F
Girls,75.07,9,M'Kenzi Campbell,Levelland,71.76,102.06,56.7,108.86,267.62,Single-ply,SBD,F
Girls,75.07,DQ,Keyle Pruitt,Monahans,70.85,102.06,47.63,104.33,,Single-ply,SBD,F
Girls,75.07,DQ,Julia Trejo,Snyder,71.49,95.25,52.16,92.99,,Single-ply,SBD,F
Girls,75.07,DQ,Rebecca Gonzales,Sweetwater,70.03,,,,,Single-ply,SBD,F
Girls,82.33,1,Samantha Kenner,Snyder,76.57,156.49,54.43,140.61,351.53,Single-ply,SBD,F
Girls,82.33,2,Emily Edwards,Levelland,75.75,127.01,72.57,133.81,333.39,Single-ply,SBD,F
Girls,82.33,3,Makayla Niblett,Midland Greenwood,80.65,127.01,58.97,133.81,319.78,Single-ply,SBD,F
Girls,82.33,4,Kara Taylor,Midland Greenwood,79.11,124.74,58.97,129.27,312.98,Single-ply,SBD,F
Girls,82.33,5,Reina Vargas,Levelland,80.1,131.54,61.23,120.2,312.98,Single-ply,SBD,F
Girls,82.33,6,Zayra Urias,Midland Greenwood,81.37,113.4,58.97,129.27,301.64,Single-ply,SBD,F
Girls,82.33,7,Nifi Jimenez,Pecos,78.11,120.2,54.43,113.4,288.03,Single-ply,SBD,F
Girls,82.33,8,Vanessa Segura,Sweetwater,79.74,113.4,45.36,106.59,265.35,Single-ply,SBD,F
Girls,82.33,9,Brianna Uribe,Perryton,78.65,106.59,43.09,106.59,256.28,Single-ply,SBD,F
Girls,82.33,10,Taylor Sikes,Monahans,82.1,83.91,52.16,90.72,226.8,Single-ply,SBD,F
Girls,90.04,1,Emily Crawford,Big Spring,89.9,163.29,65.77,145.15,374.21,Single-ply,SBD,F
Girls,90.04,2,Saron Mendoza,Levelland,85.55,140.61,56.7,138.35,335.66,Single-ply,SBD,F
Girls,90.04,3,Serena Tarango,Fort Stockton,85.82,136.08,56.7,140.61,333.39,Single-ply,SBD,F
Girls,90.04,4,Emily Hertel,Midland Greenwood,85,129.27,63.5,127.01,319.78,Single-ply,SBD,F
Girls,90.04,5,Jaci Lossie,Perryton,87.63,108.86,63.5,136.08,308.44,Single-ply,SBD,F
Girls,90.04,6,Natalie Samuels,Monahans,89.81,122.47,56.7,120.2,299.37,Single-ply,SBD,F
Girls,90.04,7,Annika De Anda,Fort Stockton,84.19,117.93,47.63,124.74,290.3,Single-ply,SBD,F
Girls,90.04,8,Destiny Perez,Seminole,85.64,115.67,52.16,104.33,272.16,Single-ply,SBD,F
Girls,90.04,9,Sara McClain,Snyder,89.18,99.79,47.63,106.59,254.01,Single-ply,SBD,F
Girls,90.04,10,Jessica DeLeon,Sweetwater,82.46,104.33,45.36,102.06,251.74,Single-ply,SBD,F
Girls,100.02,1,Sara Medrano,Seminole,98.52,176.9,72.57,154.22,403.7,Single-ply,SBD,F
Girls,100.02,2,Lori Tarango,Levelland,95.62,158.76,72.57,154.22,385.55,Single-ply,SBD,F
Girls,100.02,3,Rachel Reed,Monahans,94.8,154.22,65.77,151.95,371.95,Single-ply,SBD,F
Girls,100.02,4,Naomi Gonzales,Sweetwater,99.43,161.03,63.5,122.47,347,Single-ply,SBD,F
Girls,100.02,5,Carlie Roberts,Big Spring,94.35,129.27,56.7,129.27,315.25,Single-ply,SBD,F
Girls,100.02,6,Monica Borunda,Perryton,97.98,115.67,52.16,120.2,288.03,Single-ply,SBD,F
Girls,100.02,7,Cherstin Kidd,Lamesa,96.16,120.2,45.36,120.2,285.76,Single-ply,SBD,F
Girls,100.02,8,Brianna Lujan,Seminole,95.8,122.47,52.16,108.86,283.5,Single-ply,SBD,F
Girls,100.02+,1,Daisy Macias,Perryton,137.08,183.7,74.84,176.9,435.45,Single-ply,SBD,F
Girls,100.02+,2,Dee Carrizales,Snyder,113.76,176.9,65.77,147.42,390.09,Single-ply,SBD,F
Girls,100.02+,3,Eliza Delgado,Sweetwater,100.24,158.76,65.77,149.69,374.21,Single-ply,SBD,F
Girls,100.02+,4,Qu'Vonna Tealer,Levelland,148.87,147.42,72.57,117.93,337.93,Single-ply,SBD,F
Girls,100.02+,5,Aj Carrasco,Andrews,100.88,147.42,63.5,122.47,333.39,Single-ply,SBD,F
