Division,WeightClassKg,Place,Name,Team,BodyweightKg,Best3SquatKg,Best3BenchKg,Best3DeadliftKg,TotalKg,Equipment,Event,Sex
Boys,51.71,1,LaDarius Peterson,Houston Madison,49.9,115.67,54.43,115.67,285.76,Single-ply,SBD,M
Boys,51.71,2,Brian Frank,Houston Madison,51.3,106.59,56.7,115.67,278.96,Single-ply,SBD,M
Boys,51.71,3,Jake McShan,Conroe The Woodlands,51.71,83.91,52.16,104.33,240.4,Single-ply,SBD,M
Boys,55.79,1,Andrew Brooks,Houston Madison,55.75,176.9,95.25,181.44,453.59,Single-ply,SBD,M
Boys,55.79,2,Izzy Figueroa,New Caney,54.43,154.22,70.31,147.42,371.95,Single-ply,SBD,M
Boys,55.79,3,Ryan Sweat,Conroe The Woodlands,54.88,140.61,77.11,151.95,369.68,Single-ply,SBD,M
Boys,55.79,4,Bryce Walker,Houston Madison,55.47,140.61,77.11,142.88,360.61,Single-ply,SBD,M
Boys,55.79,5,Caffery Penn,Conroe The Woodlands,55.52,122.47,72.57,131.54,326.59,Single-ply,SBD,M
Boys,55.79,6,Justin Hill,Conroe The Woodlands,55.02,102.06,70.31,129.27,301.64,Single-ply,SBD,M
Boys,59.87,7,Dillon Blackwell,Conroe Woodlands College Park,56.02,86.18,40.82,97.52,224.53,Single-ply,SBD,M
Boys,59.87,1,Austin Alexander,Conroe Caney Creek,57.83,163.29,83.91,151.95,399.16,Single-ply,SBD,M
Boys,59.87,2,Eric Garza,Magnolia West,58.38,147.42,83.91,163.29,394.63,Single-ply,SBD,M
Boys,59.87,3,Jim Kenton,New Caney,56.7,142.88,83.91,145.15,371.95,Single-ply,SBD,M
Boys,59.87,4,Nathan Gilmore,Conroe The Woodlands,58.83,122.47,74.84,142.88,340.19,Single-ply,SBD,M
Boys,67.13,5,Jeremiah LaPaglia,New Caney,60.1,120.2,88.45,124.74,333.39,Single-ply,SBD,M
Boys,59.87,6,Justin Sensbach,Liberty,57.61,95.25,61.23,106.59,263.08,Single-ply,SBD,M
Boys,67.13,1,Conner Jung,Conroe,65,174.63,90.72,192.78,458.13,Single-ply,SBD,M
Boys,67.13,2,Cory Durbin,New Caney,66.22,172.37,117.93,154.22,444.52,Single-ply,SBD,M
Boys,67.13,3,James Moreno,Montgomery,61.42,142.88,90.72,183.7,417.3,Single-ply,SBD,M
Boys,67.13,4,Johnathon Clifton,New Caney,66.41,158.76,95.25,158.76,412.77,Single-ply,SBD,M
Boys,67.13,5,Darius Bass,Bryan,62.1,140.61,77.11,158.76,376.48,Single-ply,SBD,M
Boys,67.13,6,Darrin Walker,Liberty,62.55,129.27,77.11,156.49,362.87,Single-ply,SBD,M
Boys,67.13,7,Nick Elliff,Montgomery,66.36,124.74,81.65,145.15,351.53,Single-ply,SBD,M
Boys,67.13,8,Stephon Ellis,Bryan,60.33,145.15,63.5,140.61,349.27,Single-ply,SBD,M
Boys,67.13,9,Jorge Gomez,Huffman Hargrave,63.28,124.74,90.72,131.54,347,Single-ply,SBD,M
Boys,67.13,10,Abraham Caballero,Conroe Caney Creek,65.32,127.01,70.31,142.88,340.19,Single-ply,SBD,M
Boys,67.13,11,Chase Patterson #2,Splendora,65.32,122.47,74.84,129.27,326.59,Single-ply,SBD,M
Boys,67.13,12,Marcus Pappillion,Liberty,65.95,127.01,70.31,127.01,324.32,Single-ply,SBD,M
Boys,67.13,DQ,Hasting Brock,Dayton,62.01,111.13,,,,Single-ply,SBD,M
Boys,67.13,DQ,Kevin Gonzales,Splendora,66.59,113.4,,,,Single-ply,SBD,M
Boys,67.13,DQ,Hayden von Feldt,Splendora,66.18,,,,,Single-ply,SBD,M
Boys,82.1,1,Nathan Taylor,Montgomery,74.93,188.24,129.27,208.65,526.17,Single-ply,SBD,M
Boys,74.84,2,Mike Franke,Conroe Woodlands College Park,74.25,208.65,113.4,190.51,512.56,Single-ply,SBD,M
Boys,74.84,3,Justin Eberly,Conroe Caney Creek,72.62,195.04,95.25,217.72,508.02,Single-ply,SBD,M
Boys,74.84,4,Hunter Clift,Splendora,70.4,192.78,108.86,185.97,487.61,Single-ply,SBD,M
Boys,74.84,5,Brett Boswell,Conroe Woodlands College Park,73.84,172.37,106.59,195.04,474,Single-ply,SBD,M
Boys,74.84,6,Alfredo Gonzalez,Magnolia West,70.44,156.49,106.59,208.65,471.74,Single-ply,SBD,M
Boys,74.84,7,Justin Kay,New Caney,71.35,165.56,106.59,192.78,464.93,Single-ply,SBD,M
Boys,74.84,8,Chris Salisbury,Conroe Caney Creek,73.03,181.44,83.91,195.04,460.4,Single-ply,SBD,M
Boys,74.84,9,Darnell Washington,Conroe Woodlands College Park,73.16,167.83,92.99,195.04,455.86,Single-ply,SBD,M
Boys,82.1,10,K. Wells,Bryan,74.98,181.44,83.91,185.97,451.32,Single-ply,SBD,M
Boys,74.84,11,Armentre Sneed,Conroe,70.44,185.97,106.59,156.49,449.06,Single-ply,SBD,M
Boys,74.84,12,Brandon Reistroffer,Montgomery,70.94,145.15,122.47,181.44,449.06,Single-ply,SBD,M
Boys,74.84,13,Clayton Moreland,Magnolia West,73.94,156.49,102.06,174.63,433.18,Single-ply,SBD,M
Boys,74.84,14,Jon Luke Lambright,Dayton,71.17,165.56,99.79,158.76,424.11,Single-ply,SBD,M
Boys,74.84,15,Cesar Yepes,New Caney,74.39,142.88,106.59,170.1,419.57,Single-ply,SBD,M
Boys,74.84,16,Josh Granados,Magnolia West,71.94,145.15,92.99,170.1,408.23,Single-ply,SBD,M
Boys,74.84,17,Andrew Chasteen,Conroe Woodlands College Park,72.53,158.76,86.18,163.29,408.23,Single-ply,SBD,M
Boys,74.84,18,Xavier Green,Crosby,72.98,147.42,97.52,163.29,408.23,Single-ply,SBD,M
Boys,74.84,19,Eric Martin,Conroe,74.07,136.08,90.72,165.56,392.36,Single-ply,SBD,M
Boys,74.84,20,Bobby Goss,Dayton,67.63,142.88,81.65,158.76,383.29,Single-ply,SBD,M
Boys,74.84,21,Aston Baily,Huffman Hargrave,69.08,124.74,90.72,149.69,365.14,Single-ply,SBD,M
Boys,74.84,22,Andrew Danheim,Conroe The Woodlands,71.8,147.42,81.65,129.27,358.34,Single-ply,SBD,M
Boys,82.1,DQ,Michael Bugbee,Dayton,75.07,,,,,Single-ply,SBD,M
Boys,74.84,DQ,Josh Burleson,Conroe,70.94,,,,,Single-ply,SBD,M
Boys,74.84,DQ,Bobby Ellis,Crosby,70.76,122.47,,,,Single-ply,SBD,M
Boys,82.1,1,Zach Hohman,Conroe The Woodlands,77.7,294.84,167.83,226.8,689.46,Single-ply,SBD,M
Boys,82.1,2,Sebastian Riley,Conroe Caney Creek,78.34,204.12,115.67,179.17,498.95,Single-ply,SBD,M
Boys,82.1,3,Jacob Little,Splendora,82.05,185.97,104.33,201.85,492.15,Single-ply,SBD,M
Boys,82.1,4,Martin Sterling,Liberty,78.61,179.17,95.25,190.51,464.93,Single-ply,SBD,M
Boys,82.1,5,Matt Burton,Dayton,81.01,158.76,104.33,192.78,455.86,Single-ply,SBD,M
Boys,82.1,6,Jordan Baxter,Dayton,81.33,158.76,113.4,183.7,455.86,Single-ply,SBD,M
Boys,82.1,7,Joe Jack,Crosby,78.15,161.03,92.99,197.31,451.32,Single-ply,SBD,M
Boys,82.1,8,Macade Trim,Magnolia West,81.1,161.03,102.06,170.1,433.18,Single-ply,SBD,M
Boys,82.1,9,Ike Jones,Bryan,80.42,142.88,86.18,149.69,378.75,Single-ply,SBD,M
Boys,82.1,10,Cory Rowlee,Crosby,77.25,108.86,97.52,163.29,369.68,Single-ply,SBD,M
Boys,82.1,11,Kevin Clements,Huffman Hargrave,80.51,102.06,102.06,151.95,356.07,Single-ply,SBD,M
Boys,82.1,DQ,Lorenzo Ruiz,Splendora,78.34,,,,,Single-ply,SBD,M
Boys,89.81,1,Clint Ramirez,New Caney,84.69,226.8,165.56,235.87,628.23,Single-ply,SBD,M
Boys,89.81,2,Stephon Richard,Bryan,86.86,219.99,129.27,226.8,576.06,Single-ply,SBD,M
Boys,89.81,3,Nathan Brantner,Splendora,88.18,192.78,142.88,199.58,535.24,Single-ply,SBD,M
Boys,89.81,4,Zack Paulson,Magnolia West,88.77,208.65,120.2,201.85,530.7,Single-ply,SBD,M
Boys,89.81,5,Chris Smith #22,Conroe Woodlands College Park,85.55,197.31,124.74,206.38,528.44,Single-ply,SBD,M
Boys,89.81,6,Taylor Faridifar,Conroe,85.14,197.31,136.08,190.51,523.9,Single-ply,SBD,M
Boys,89.81,7,Marshall Bolden,New Caney,86.23,213.19,124.74,176.9,514.83,Single-ply,SBD,M
Boys,89.81,8,Joe Duff,Dayton,84.1,185.97,111.13,208.65,505.76,Single-ply,SBD,M
Boys,89.81,9,Henderson Watkins,Montgomery,88.99,192.78,108.86,199.58,501.22,Single-ply,SBD,M
Boys,89.81,10,Collin Robertson,Conroe Woodlands College Park,84.55,190.51,99.79,192.78,483.08,Single-ply,SBD,M
Boys,89.81,11,Brandon Holmes,Conroe Caney Creek,84.69,183.7,104.33,181.44,469.47,Single-ply,SBD,M
Boys,89.81,12,Seth Keating,Montgomery,85.73,185.97,108.86,172.37,467.2,Single-ply,SBD,M
Boys,89.81,13,Mike Barringer,Bryan,83.42,183.7,81.65,199.58,464.93,Single-ply,SBD,M
Boys,89.81,14,Eric Barcenas,Conroe,86.36,183.7,113.4,163.29,460.4,Single-ply,SBD,M
Boys,89.81,15,Eduardo Alcaraz,New Caney,89.81,161.03,120.2,163.29,444.52,Single-ply,SBD,M
Boys,89.81,16,Tracy Alfero,Bryan,88.31,161.03,90.72,185.97,437.72,Single-ply,SBD,M
Boys,89.81,17,Travis Oakley,New Caney,88.45,174.63,92.99,145.15,412.77,Single-ply,SBD,M
Boys,89.81,18,Matt Simpson,Huffman Hargrave,86.41,151.95,86.18,142.88,381.02,Single-ply,SBD,M
Boys,89.81,19,Bryce Bean,Liberty,86.36,136.08,68.04,138.35,342.46,Single-ply,SBD,M
Boys,89.81,20,Zak Adams,Splendora,84.96,124.74,79.38,136.08,340.19,Single-ply,SBD,M
Boys,89.81,DQ,Justin Duhon,Crosby,83.32,174.63,106.59,,,Single-ply,SBD,M
Boys,99.79,1,Darren Stewart,Splendora,91.49,242.67,136.08,233.6,612.35,Single-ply,SBD,M
Boys,99.79,2,Josh Gutierrez,Magnolia West,98.7,233.6,138.35,229.06,601.01,Single-ply,SBD,M
Boys,99.79,3,Dedreck Rucker,Conroe,92.08,210.92,115.67,233.6,560.19,Single-ply,SBD,M
Boys,99.79,4,Kennith Clayburg,New Caney,93.26,199.58,163.29,190.51,553.38,Single-ply,SBD,M
Boys,99.79,5,Caleb Etheridge,New Caney,94.8,204.12,145.15,197.31,546.58,Single-ply,SBD,M
Boys,99.79,6,Alex Kendrick,Huffman Hargrave,93.89,210.92,120.2,213.19,544.31,Single-ply,SBD,M
Boys,99.79,7,Roderick Wiltz,Houston Madison,95.93,215.46,129.27,199.58,544.31,Single-ply,SBD,M
Boys,109.77,8,Derrick Powell,Dayton,99.93,183.7,149.69,183.7,517.1,Single-ply,SBD,M
Boys,99.79,9,Thang Nguyen,Montgomery,93.98,199.58,113.4,195.04,508.02,Single-ply,SBD,M
Boys,99.79,10,Sam Heaton,Conroe Woodlands College Park,99.16,206.38,97.52,201.85,505.76,Single-ply,SBD,M
Boys,99.79,11,Josh Watson,Bryan,93.62,185.97,127.01,181.44,494.42,Single-ply,SBD,M
Boys,99.79,12,Jeff Martinez,Bryan,94.98,190.51,113.4,170.1,474,Single-ply,SBD,M
Boys,99.79,13,Dominic Merka,Crosby,93.89,151.95,120.2,197.31,469.47,Single-ply,SBD,M
Boys,99.79,14,Cameron Phillips,Huffman Hargrave,93.44,165.56,120.2,165.56,451.32,Single-ply,SBD,M
Boys,99.79,15,Frankie Garcia,Conroe Woodlands College Park,98.7,170.1,95.25,183.7,449.06,Single-ply,SBD,M
Boys,99.79,16,Jacob Perry,Conroe Caney Creek,98.88,181.44,97.52,170.1,449.06,Single-ply,SBD,M
Boys,99.79,17,Jesse Blackburn,Crosby,94.35,158.76,111.13,174.63,444.52,Single-ply,SBD,M
Boys,99.79,18,Ray Mendez,Crosby,92.99,147.42,113.4,176.9,437.72,Single-ply,SBD,M
Boys,99.79,19,Eliud Deleon,Dayton,90.4,142.88,108.86,183.7,435.45,Single-ply,SBD,M
Boys,99.79,20,Patrick McCloud,Conroe The Woodlands,93.89,147.42,95.25,185.97,428.64,Single-ply,SBD,M
Boys,99.79,21,Travis Driver,Huffman Hargrave,97.52,151.95,88.45,183.7,424.11,Single-ply,SBD,M
Boys,99.79,22,Adrian White,Crosby,92.22,133.81,97.52,158.76,390.09,Single-ply,SBD,M
Boys,99.79,DQ,Jacob Blake,Conroe,98.2,210.92,,,,Single-ply,SBD,M
Boys,109.77,1,Aaron Ripkowski,Dayton,105.1,265.35,213.19,226.8,705.34,Single-ply,SBD,M
Boys,109.77,2,Kevin Crew,Splendora,103.24,249.48,167.83,233.6,650.91,Single-ply,SBD,M
Boys,109.77,3,Stephon Williams,Houston Madison,101.02,222.26,154.22,240.4,616.89,Single-ply,SBD,M
Boys,124.74,4,Bryan Kimmy,Dayton,109.91,235.87,147.42,204.12,587.4,Single-ply,SBD,M
Boys,109.77,5,Clay Boyd,Montgomery,103.74,199.58,131.54,222.26,553.38,Single-ply,SBD,M
Boys,109.77,6,David Keirum,New Caney,106.14,204.12,124.74,197.31,526.17,Single-ply,SBD,M
Boys,109.77,7,Nick Simpson,Houston Madison,104.33,204.12,113.4,204.12,521.63,Single-ply,SBD,M
Boys,109.77,8,Jeffrey Whorten,Montgomery,107.18,185.97,108.86,181.44,476.27,Single-ply,SBD,M
Boys,109.77,9,Nathan Bang,Crosby,101.33,136.08,92.99,170.1,399.16,Single-ply,SBD,M
Boys,109.77,10,Grant Bonnette,Conroe The Woodlands,109.59,158.76,81.65,147.42,387.82,Single-ply,SBD,M
Boys,124.74,1,Glen Salisbury,Conroe Caney Creek,112.26,226.8,154.22,226.8,607.81,Single-ply,SBD,M
Boys,124.74,2,Darrian Wright,Dayton,119.75,226.8,136.08,240.4,603.28,Single-ply,SBD,M
Boys,124.74,3,Chance McCormack,Dayton,116.26,204.12,136.08,249.48,589.67,Single-ply,SBD,M
Boys,124.74,4,Levi Lunsford,Splendora,120.66,233.6,136.08,204.12,573.79,Single-ply,SBD,M
Boys,124.74,5,K. Lewis #3,Bryan,122.56,233.6,127.01,204.12,564.72,Single-ply,SBD,M
Boys,124.74,6,Chris Rose,Houston Madison,118.98,199.58,131.54,204.12,535.24,Single-ply,SBD,M
Boys,124.74,7,Lamii Kawami,Houston Madison,116.12,204.12,138.35,181.44,523.9,Single-ply,SBD,M
Boys,124.74,8,Caleb Clark,Crosby,114.58,181.44,111.13,215.46,508.02,Single-ply,SBD,M
Boys,124.74,9,Deontre Beasley,Bryan,115.67,215.46,104.33,185.97,505.76,Single-ply,SBD,M
Boys,124.74,10,Josh Weingrad,Conroe Woodlands College Park,110.54,195.04,124.74,183.7,503.49,Single-ply,SBD,M
Boys,124.74,11,Clayton Leeth,Bryan,123.2,208.65,113.4,181.44,503.49,Single-ply,SBD,M
Boys,124.74,12,Kyle Lewis,Crosby,123.74,181.44,106.59,192.78,480.81,Single-ply,SBD,M
Boys,124.74,13,Ivan Estipona,New Caney,111.13,190.51,86.18,188.24,464.93,Single-ply,SBD,M
Boys,124.74,14,Aaron West,Splendora,119.7,149.69,102.06,136.08,387.82,Single-ply,SBD,M
Boys,124.74,DQ,Austin Tottingham,Montgomery,112.4,,,,,Single-ply,SBD,M
Boys,124.74+,1,Josh Sell,Liberty,146.46,238.14,158.76,215.46,612.35,Single-ply,SBD,M
Boys,124.74+,2,Justin Smith #18,New Caney,126.92,240.4,174.63,195.04,610.08,Single-ply,SBD,M
Boys,124.74+,3,Charles Phillips,Houston Madison,130.32,226.8,165.56,176.9,569.26,Single-ply,SBD,M
Boys,124.74+,4,Christian Cornel,Conroe,142.43,229.06,136.08,174.63,539.77,Single-ply,SBD,M
Boys,124.74+,5,Cody Britton,Conroe Caney Creek,136.08,204.12,136.08,195.04,535.24,Single-ply,SBD,M
Boys,124.74+,6,Ben Townes,Conroe Caney Creek,157.67,199.58,120.2,190.51,510.29,Single-ply,SBD,M
Boys,124.74+,7,T Hines,Bryan,138.44,190.51,113.4,204.12,508.02,Single-ply,SBD,M
Boys,124.74+,8,Omar Tebo,Liberty,137.08,192.78,122.47,163.29,478.54,Single-ply,SBD,M
Boys,124.74+,DQ,Dalton Baker,Montgomery,125.19,204.12,127.01,,,Single-ply,SBD,M
