Division,WeightClassKg,Place,Name,Team,BodyweightKg,Best3SquatKg,Best3BenchKg,Best3DeadliftKg,TotalKg,Equipment,Event,Sex
Boys,55.79,1,Roger Garcia,Mineral Wells,51.89,136.08,90.72,136.08,362.87,Single-ply,SBD,M
Boys,51.71,2,J. Paul Axtell,Olney,49.08,124.74,61.23,97.52,283.5,Single-ply,SBD,M
Boys,51.71,3,C Goodgoin,Brownwood,51.62,90.72,45.36,113.4,249.48,Single-ply,SBD,M
Boys,51.71,4,Payton Johnson,San Saba,45.99,88.45,43.09,97.52,229.06,Single-ply,SBD,M
Boys,51.71,5,Kyle Jaynes,Rising Star,45.81,81.65,47.63,97.52,226.8,Single-ply,SBD,M
Boys,55.79,1,Nimo Vega,San Saba,54.34,138.35,79.38,167.83,385.55,Single-ply,SBD,M
Boys,55.79,2,Randy Salinas,Bangs,54.88,142.88,74.84,163.29,381.02,Single-ply,SBD,M
Boys,55.79,3,Quenton Winborn,Early,55.52,151.95,70.31,142.88,365.14,Single-ply,SBD,M
Boys,59.87,4,Justin Little,Strawn,55.97,127.01,77.11,145.15,349.27,Single-ply,SBD,M
Boys,55.79,5,Christian Alexander,Tuscola Jim Ned,55.61,136.08,77.11,131.54,344.73,Single-ply,SBD,M
Boys,55.79,6,Nike Garcia,Early,53.8,127.01,70.31,138.35,335.66,Single-ply,SBD,M
Boys,55.79,7,Preston Garcia,Early,54.88,129.27,70.31,131.54,331.12,Single-ply,SBD,M
Boys,67.13,1,Corey Crowell,Bangs,60.06,183.7,113.4,172.37,469.47,Single-ply,SBD,M
Boys,59.87,2,Chris Hernandez,Venus,58.51,176.9,86.18,185.97,449.06,Single-ply,SBD,M
Boys,59.87,3,Matt Anderson,Coleman,57.97,154.22,77.11,163.29,394.63,Single-ply,SBD,M
Boys,59.87,4,Tristan Niles,Burkburnett,59.33,149.69,81.65,149.69,381.02,Single-ply,SBD,M
Boys,67.13,5,Tim Dorris,Strawn,59.96,147.42,63.5,158.76,369.68,Single-ply,SBD,M
Boys,59.87,6,Anthony Garcia,Strawn,59.87,142.88,77.11,147.42,367.41,Single-ply,SBD,M
Boys,67.13,1,Chase Kurszewski,Burkburnett,66.77,176.9,88.45,185.97,451.32,Single-ply,SBD,M
Boys,67.13,2,Cosme Diaz,San Saba,66.04,170.1,88.45,185.97,444.52,Single-ply,SBD,M
Boys,74.84,3,Austin Armagost,Burkburnett,67.31,167.83,102.06,170.1,439.98,Single-ply,SBD,M
Boys,67.13,4,Brian San Miguel,Mineral Wells,66.32,165.56,88.45,145.15,399.16,Single-ply,SBD,M
Boys,67.13,5,Mathew Fisher,Tuscola Jim Ned,64.59,145.15,86.18,161.03,392.36,Single-ply,SBD,M
Boys,67.13,6,Peyton Polston,Tuscola Jim Ned,64.77,131.54,92.99,149.69,374.21,Single-ply,SBD,M
Boys,74.84,7,Victor Contreras,Mineral Wells,67.31,136.08,79.38,147.42,362.87,Single-ply,SBD,M
Boys,67.13,8,Jordan Chiappone,Clyde,66.77,124.74,77.11,147.42,349.27,Single-ply,SBD,M
Boys,67.13,9,Ross Alison,Strawn,63.55,113.4,77.11,147.42,337.93,Single-ply,SBD,M
Boys,74.84,1,Eddie Morgan,Venus,73.94,226.8,106.59,231.33,564.72,Single-ply,SBD,M
Boys,74.84,2,Jake Gravell,Bangs,74.3,226.8,136.08,197.31,560.19,Single-ply,SBD,M
Boys,74.84,3,Gabe Huerta,Bridgeport,73.94,185.97,131.54,181.44,498.95,Single-ply,SBD,M
Boys,74.84,4,Ross Mullins,Olney,72.39,161.03,108.86,183.7,453.59,Single-ply,SBD,M
Boys,74.84,5,Morgan Smith #9,Tuscola Jim Ned,72.12,167.83,108.86,170.1,446.79,Single-ply,SBD,M
Boys,74.84,6,Charlie Tongate,Early,70.13,158.76,77.11,192.78,428.64,Single-ply,SBD,M
Boys,74.84,7,Gerardo Gonzales,Clyde,68.22,151.95,102.06,151.95,405.97,Single-ply,SBD,M
Boys,74.84,8,Jose Martinez,Rising Star,73.66,136.08,97.52,154.22,387.82,Single-ply,SBD,M
Boys,74.84,9,J Geis,Brownwood,70.85,138.35,83.91,147.42,369.68,Single-ply,SBD,M
Boys,74.84,10,G Doyal,Brownwood,73.21,136.08,79.38,147.42,362.87,Single-ply,SBD,M
Boys,74.84,11,Joseph Rees,Tuscola Jim Ned,68.22,131.54,72.57,154.22,358.34,Single-ply,SBD,M
Boys,74.84,12,Armando Aguilar,Gustine,69.13,127.01,90.72,136.08,353.8,Single-ply,SBD,M
Boys,74.84,13,Jared Stone,Mineral Wells,73.39,102.06,63.5,131.54,297.1,Single-ply,SBD,M
Boys,74.84,DQ,Ryan Davila,Mineral Wells,72.3,,,,,Single-ply,SBD,M
Boys,74.84,DQ,Jose Lopez,Gustine,72.57,,,,,Single-ply,SBD,M
Boys,74.84,DQ,Colton Honea,Tuscola Jim Ned,71.3,,,,,Single-ply,SBD,M
Boys,82.1,1,Travis Mallory,Mineral Wells,79.38,210.92,129.27,215.46,555.65,Single-ply,SBD,M
Boys,89.81,2,Manuel Murillo,Venus,82.19,210.92,120.2,210.92,542.04,Single-ply,SBD,M
Boys,82.1,3,Dylan Rosales,San Saba,81.65,190.51,115.67,224.53,530.7,Single-ply,SBD,M
Boys,82.1,4,Cody Morrison,Early,79.56,206.38,86.18,215.46,508.02,Single-ply,SBD,M
Boys,82.1,5,Ismael Ramirez,San Saba,78.65,174.63,115.67,201.85,492.15,Single-ply,SBD,M
Boys,82.1,6,M. Gibson,Brownwood,76.38,172.37,99.79,170.1,442.25,Single-ply,SBD,M
Boys,82.1,7,Albert Elizondo,Early,82.01,197.31,90.72,151.95,439.98,Single-ply,SBD,M
Boys,82.1,8,J. Nash,Brownwood,76.2,149.69,97.52,158.76,405.97,Single-ply,SBD,M
Boys,82.1,9,J. Carter,Brownwood,81.83,124.74,79.38,136.08,340.19,Single-ply,SBD,M
Boys,82.1,DQ,Zac Hollingsworth,Burkburnett,75.21,188.24,113.4,,,Single-ply,SBD,M
Boys,82.1,DQ,Jake Morgan,Clyde,81.19,190.51,102.06,,,Single-ply,SBD,M
Boys,89.81,1,Josh Beckwith,Bangs,89.81,249.48,136.08,235.87,621.42,Single-ply,SBD,M
Boys,89.81,2,Charlie Thomas,Coleman,87.82,226.8,136.08,242.67,605.55,Single-ply,SBD,M
Boys,89.81,3,Eric Martinez,Venus,87.63,213.19,129.27,231.33,573.79,Single-ply,SBD,M
Boys,89.81,4,Rudy Rodriguez,Dublin,84.46,215.46,117.93,210.92,544.31,Single-ply,SBD,M
Boys,89.81,5,Jaymes Upchurch,Burkburnett,85.18,183.7,138.35,204.12,526.17,Single-ply,SBD,M
Boys,89.81,6,Garrett Hamner,Tuscola Jim Ned,88.63,190.51,117.93,208.65,517.1,Single-ply,SBD,M
Boys,89.81,7,M Monsen,Brownwood,88.18,188.24,117.93,181.44,487.61,Single-ply,SBD,M
Boys,89.81,8,Tristan Teplicek,Rising Star,85.28,136.08,88.45,136.08,360.61,Single-ply,SBD,M
Boys,89.81,9,Garrett Hight,Gustine,84.73,129.27,68.04,158.76,356.07,Single-ply,SBD,M
Boys,89.81,10,S Castillo,Brownwood,85.82,149.69,77.11,127.01,353.8,Single-ply,SBD,M
Boys,89.81,11,J. Price,Brownwood,85.91,136.08,81.65,136.08,353.8,Single-ply,SBD,M
Boys,89.81,DQ,Austin Rain,Clyde,83.64,,,,,Single-ply,SBD,M
Boys,89.81,DQ,Alex Joplin,Burkburnett,88,215.46,138.35,,,Single-ply,SBD,M
Boys,89.81,DQ,D Stredic,Brownwood,88.45,,,,,Single-ply,SBD,M
Boys,89.81,DQ,Josh Shreeves,Early,89.18,,,,,Single-ply,SBD,M
Boys,89.81,DQ,Chris Keith,Tuscola Jim Ned,86.91,136.08,,,,Single-ply,SBD,M
Boys,89.81,DQ,Marcus Lopez,Strawn,89.49,181.44,,,,Single-ply,SBD,M
Boys,99.79,1,Michael Clift,Venus,95.71,226.8,140.61,199.58,566.99,Single-ply,SBD,M
Boys,99.79,2,Brian Rogers,San Saba,99.52,213.19,136.08,210.92,560.19,Single-ply,SBD,M
Boys,99.79,3,J Bocknite,Brownwood,95.35,206.38,122.47,229.06,557.92,Single-ply,SBD,M
Boys,99.79,4,Keith Clardy,Early,93.26,215.46,115.67,210.92,542.04,Single-ply,SBD,M
Boys,99.79,5,R. Lewis,Brownwood,95.07,192.78,106.59,197.31,496.68,Single-ply,SBD,M
Boys,99.79,6,J. Mobley,Brownwood,99.06,149.69,122.47,156.49,428.64,Single-ply,SBD,M
Boys,99.79,7,C. Gonzales,Brownwood,97.52,149.69,86.18,145.15,381.02,Single-ply,SBD,M
Boys,99.79,DQ,Joe Haddad,Clyde,93.71,,,,,Single-ply,SBD,M
Boys,99.79,DQ,Steven Prater,Venus,94.89,206.38,,,,Single-ply,SBD,M
Boys,99.79,DQ,Victor Hernandez,Strawn,99.02,,,,,Single-ply,SBD,M
Boys,109.77,1,Matt Aguilar,Mineral Wells,104.6,274.42,142.88,226.8,644.1,Single-ply,SBD,M
Boys,109.77,2,Preston Posuk,Cross Plains,103.69,215.46,122.47,219.99,557.92,Single-ply,SBD,M
Boys,109.77,3,Addison Schreffler,Clyde,105.23,215.46,151.95,181.44,548.85,Single-ply,SBD,M
Boys,109.77,4,Sean Hargrove,Venus,105.14,226.8,120.2,181.44,528.44,Single-ply,SBD,M
Boys,109.77,5,Ethan San Miguel,Mineral Wells,107.95,204.12,122.47,163.29,489.88,Single-ply,SBD,M
Boys,109.77,6,Luis Escamilla,Gustine,102.15,170.1,111.13,183.7,464.93,Single-ply,SBD,M
Boys,109.77,7,Trace Boyd,Strawn,102.38,167.83,102.06,167.83,437.72,Single-ply,SBD,M
Boys,109.77,8,M Livingston,Brownwood,103.96,185.97,90.72,158.76,435.45,Single-ply,SBD,M
Boys,109.77,9,Aaron Hite,Mineral Wells,108.05,149.69,97.52,149.69,396.89,Single-ply,SBD,M
Boys,109.77,DQ,Oscar Valdez,Clyde,108.5,,,,,Single-ply,SBD,M
Boys,109.77,DQ,Fred Hemhill,Coleman,103.42,199.58,,,,Single-ply,SBD,M
Boys,109.77,DQ,N. Wilkins,Brownwood,108.14,,,,,Single-ply,SBD,M
Boys,109.77,DQ,Kristian McCoury,San Saba,104.33,,,,,Single-ply,SBD,M
Boys,124.74,1,Michael Williams,Dublin,124.47,242.67,158.76,249.48,650.91,Single-ply,SBD,M
Boys,124.74,2,Jeff King,Cross Plains,116.3,249.48,140.61,199.58,589.67,Single-ply,SBD,M
Boys,124.74,3,Conner Willis,Tuscola Jim Ned,124.1,226.8,136.08,204.12,566.99,Single-ply,SBD,M
Boys,124.74,4,Jacob McCluskey,Rising Star,111.77,215.46,161.03,181.44,557.92,Single-ply,SBD,M
Boys,124.74+,1,Diego Montoya,San Saba,131.9,301.64,174.63,292.57,768.84,Single-ply,SBD,M
Boys,124.74+,2,Cullen Ruth,Brownwood,152.77,254.01,158.76,219.99,632.76,Single-ply,SBD,M
Boys,124.74+,3,Dakota Larson,Venus,128.91,254.01,190.51,181.44,625.96,Single-ply,SBD,M
Boys,124.74+,4,Kevin Hobbs,Brownwood,133.9,260.82,127.01,233.6,621.42,Single-ply,SBD,M
Boys,124.74+,5,Evan Tate,Tuscola Jim Ned,125.1,213.19,113.4,204.12,530.7,Single-ply,SBD,M
Boys,124.74+,6,Dempsey Dorris,Strawn,136.76,208.65,113.4,201.85,523.9,Single-ply,SBD,M
Boys,124.74+,7,Weldon Edwards,Early,149.78,215.46,102.06,206.38,523.9,Single-ply,SBD,M
Boys,124.74+,DQ,Bucky McDaniel,Early,125.92,204.12,115.67,,,Single-ply,SBD,M
