Name,Sex,BodyweightKg,WeightClassKg,BirthDate,Age,Team,Event,Equipment,Squat1Kg,Squat2Kg,Squat3Kg,Best3SquatKg,Bench1Kg,Bench2Kg,Bench3Kg,Best3BenchKg,Deadlift1Kg,Deadlift2Kg,Deadlift3Kg,Best3DeadliftKg,TotalKg,Division,Place
Jeniffer Sepúlveda,F,44,44,1992-11-09,23,Sin Equipo,SBD,Wraps,60,67.5,-70,67.5,30,35,37.5,37.5,75,82.5,90,90,195,Open,1
Vilka Venegas,F,48,48,1999-09-29,16,Titanes Lifters,SBD,Wraps,80,85,90,90,30,32.5,-35,32.5,80,90,95,95,217.5,Open,1
Claudia Pelaez,F,50.8,52,1997-05-29,18,Gym My House,SBD,Wraps,75,82.5,-87.5,82.5,35,-40,-40,35,100,105,110,110,227.5,Open,1
Pamela Quezada,F,50.6,52,2001-02-12,14,Titanes Lifters,SBD,Wraps,45,60,70,70,25,35,-40,35,70,80,87.5,87.5,192.5,Open,2
Victoria Alarcón,F,50.9,52,1995-02-20,20,Titanes Lifters,SBD,Wraps,60,67.5,72.5,72.5,30,35,-37.5,35,67.5,75,80,80,187.5,Open,3
Elizabeth Díaz,F,51.2,52,1986-12-11,28,Titanes Lifters,SBD,Wraps,50,55,60,60,20,25,-30,25,60,65,70,70,155,Open,4
Vanessa Muñoz,F,55.2,56,1995-06-27,20,Sin Equipo,SBD,Wraps,67.5,72.5,75,75,40,-42.5,-42.5,40,100,110,,110,225,Open,1
Carolina González,F,55.8,56,1988-06-01,27,Titanes Lifters,SBD,Wraps,70,-75,75,75,30,32.5,35,35,70,75,82.5,82.5,192.5,Open,2
Jennifer Santander,F,59.4,60,1988-01-07,27,Powergym,SBD,Wraps,90,100,-110,100,55,60,-65,60,95,100,110,110,270,Open,1
Yassna Riffo,F,57.8,60,1973-11-01,42,Titanes Lifters,SBD,Wraps,70,80,90,90,40,-45,-45,40,90,92.5,95,95,225,Open,2
Carla Torres,F,57.1,60,1996-07-10,19,Gym My House,SBD,Wraps,60,70,-72.5,70,25,-30,-30,25,60,75,-85,75,170,Open,3
Nicole Sandoval,F,57.5,60,1991-09-17,24,Titanes Lifters,SBD,Wraps,-75,-75,-75,,35,-40,40,40,80,90,100,100,,Open,DQ
Rosalía Llancaleo Saavedra,F,66.4,67.5,1968-09-19,47,Genesis,SBD,Wraps,150,160,170,170,70,80,85,85,150,160,170,170,425,Open,1
Macarena Olguín,F,61,67.5,1995-11-21,20,Strencth Lab,SBD,Wraps,55,60,-65,60,30,-35,-35,30,80,85,90,90,180,Open,2
Erika Cruces Crisóstomo,F,70.4,75,1974-08-11,41,Genesis,SBD,Wraps,160,170,,170,70,80,-85,80,150,,,150,400,Open,1
Tamara Acevedo,F,73.5,75,1993-06-29,22,Invitada,SBD,Wraps,100,120,-130,120,50,60,65,65,100,120,130,130,315,Open,2
Carla Espina,F,72.5,75,1990-08-02,25,Genesis,SBD,Wraps,70,80,90,90,30,-40,-40,30,70,,,70,190,Open,3
Ivonne Bastías,F,78,82.5,1986-05-31,29,Gym My House,SBD,Wraps,85,100,-115,100,37.5,-42.5,-42.5,37.5,-120,120,132.5,132.5,270,Open,1
Javierra Rojas,F,75.1,82.5,1990-10-18,25,Genesis,SBD,Wraps,-120,-135,-135,,50,55,-60,55,130,132.5,140,140,,Open,DQ
Rodrigo Ferrada,M,55.7,56,1996-12-22,18,Powergym,SBD,Wraps,80,90,-100,90,70,-80,-80,70,120,130,140,140,300,Open,1
Rodrigo Bolivar,M,58.4,60,1989-05-18,26,Powergym,SBD,Wraps,110,130,-135,130,80,85,-87.5,85,170,180,185,185,400,Open,1
Jean Rodríguez,M,59,60,1992-07-06,23,Power Menace,SBD,Wraps,110,120,-130,120,80,-85,-85,80,150,160,-170,160,360,Open,2
Juan Hernández #1,M,59.1,60,1996-01-16,19,Sin Equipo,SBD,Wraps,70,85,100,100,60,-70,-70,60,100,-120,140,140,300,Open,3
Exal García Carrillo,M,67.5,67.5,1984-04-14,31,Titanes Lifters,SBD,Wraps,170,180,185,185,125,132.5,135,135,160,175,,175,495,Open,1
Guillermo Arias,M,65,67.5,1992-12-30,22,Shottas,SBD,Wraps,145,150,155,155,110,112.5,-115,112.5,170,175,-180,175,442.5,Open,2
Sebastian Montecinos,M,63.4,67.5,1993-11-05,22,Powergym,SBD,Wraps,130,140,145,145,95,100,-102.5,100,155,162.5,170,170,415,Open,3
Antonio Cancino,M,64.6,67.5,1984-10-14,31,Genesis,SBD,Wraps,-120,120,130,130,80,85,-90,85,140,150,155,155,370,Open,4
Diego Palavecino,M,64.2,67.5,1993-12-20,21,Powergym,SBD,Wraps,110,112.5,-130,112.5,80,-90,-90,80,145,147.5,170,170,362.5,Open,5
Arnaldo Salinas Sepúlveda,M,74.9,75,1983-04-01,32,Espartanos,SBD,Wraps,200,210,220,220,110,115,117.5,117.5,220,240,-252.5,240,577.5,Open,1
Eric Montecinos,M,74.4,75,1991-01-27,24,Powergym,SBD,Wraps,170,180,185,185,-125,-125,125,125,200,215,225,225,535,Open,2
Jacob Lagos,M,68.7,75,1992-11-28,23,Shottas,SBD,Wraps,-150,150,-160,150,90,95,-97.5,95,185,195,207.5,207.5,452.5,Open,3
Victor Bustos,M,73.4,75,1996-11-08,19,Powergym,SBD,Wraps,-135,-145,155,155,-105,107.5,-110,107.5,160,185,190,190,452.5,Open,4
Omar Gutiérrez Olave,M,70.4,75,1990-09-15,25,Genesis,SBD,Wraps,135,-145,155,155,90,95,100,100,165,185,-195,185,440,Open,5
Edgardo Venegas,M,72.7,75,1993-04-11,22,Titanes Lifters,SBD,Wraps,135,142.5,145,145,100,105,-110,105,160,170,180,180,430,Open,6
Ariel Bustos,M,69.9,75,1992-10-06,23,Titanes Lifters,SBD,Wraps,135,140,-150,140,-97.5,97.5,100,100,160,170,-175,170,410,Open,7
Diego Mardones,M,73.3,75,1993-02-02,22,Shottas,B,Raw,,,,,110,120,-125,120,,,,,120,Open,2
Eduardo Rosas,M,73,75,1992-06-16,23,Energylife,B,Raw,,,,,135,-137.5,-137.5,135,,,,,135,Open,1
Brayan Díaz,M,74.8,75,1997-05-20,18,Espartanos,SBD,Wraps,-170,-180,-180,,90,95,-100,95,170,180,190,190,,Open,DQ
Carlos Macías,M,74.5,75,1993-03-31,22,Gym My House,SBD,Wraps,140,-142.5,-160,140,-95,-95,-95,,140,155,165,165,,Open,DQ
Cristobal Cuevas,M,71.9,75,1996-03-16,19,Powergym,SBD,Wraps,130,140,-150,140,-102.5,-102.5,-102.5,,155,175,190,190,,Open,DQ
Nicolas Peñaloza,M,80.5,82.5,1990-12-19,24,Titanes Lifters,SBD,Wraps,240,260,,260,150,155,-160,155,250,-260,,250,665,Open,1
Cristian Sepúlveda,M,81.5,82.5,1995-02-10,20,Sin Equipo,SBD,Wraps,170,190,-205,190,130,-135,135,135,190,205,215,215,540,Open,2
Hugo Ignacio Vega Jil,M,81.5,82.5,1992-12-15,22,Sin Equipo,SBD,Wraps,165,-180,180,180,105,-110,-110,105,190,200,207.5,207.5,492.5,Open,3
Nelson San Martín,M,78.6,82.5,1992-10-07,23,Gym My House,SBD,Wraps,145,160,-175,160,110,-115,115,115,190,202.5,-210,202.5,477.5,Open,4
Daniel Tapia,M,82.3,82.5,1989-11-23,26,Gym My House,SBD,Wraps,145,-155,160,160,92.5,97.5,100,100,190,202.5,210,210,470,Open,5
Patricio Poblete,M,75.3,82.5,1994-01-26,21,Power Menace,SBD,Wraps,130,-140,-140,130,90,-95,-95,90,150,160,170,170,390,Open,6
Ricardo Ortíz,M,77,82.5,1997-04-04,18,Sin Equipo,SBD,Wraps,-90,90,110,110,90,100,-105,100,140,155,165,165,375,Open,7
Cristian Catalán,M,80.3,82.5,1974-02-01,41,Sin Equipo,SBD,Wraps,120,125,130,130,85,90,95,95,135,145,-155,145,370,Open,9
Marcelo Flores,M,79.3,82.5,1995-03-24,20,Titanes Lifters,SBD,Wraps,110,-120,-120,110,115,-120,-120,115,130,145,-160,145,370,Open,8
Rodrigo Salinas,M,81.3,82.5,1987-09-15,28,Invitado,B,Raw,,,,,-140,-140,140,140,,,,,140,Open,1
Luis Muñoz #3,M,79.7,82.5,1997-05-09,18,Titanes Lifters,B,Raw,,,,,-120,-120,-120,,,,,,,Open,DQ
Angel Miranda,M,81.8,82.5,1982-03-25,33,Club Apolo,B,Raw,,,,,-130,,-135,,,,,,,Open,DQ
Carlos Rivas,M,89.4,90,1990-05-29,25,Powergym,SBD,Wraps,180,210,220,220,130,135,-140,135,200,215,230,230,585,Open,1
Victor Sepulveda,M,88.9,90,1996-06-11,19,Titanes Lifters,SBD,Wraps,200,210,-220,210,112.5,115,-117.5,115,220,230,-240,230,555,Open,2
Mauricio Rodríguez Cid,M,85.4,90,1998-07-06,17,Power Menace,SBD,Wraps,175,-185,-185,175,-110,-110,110,110,200,-210,210,210,495,Open,3
Nicholas Ignacio Pezo Cruz,M,89.6,90,1991-10-18,24,Genesis,SBD,Wraps,270,,-290,270,,,,,,,,,,Open,DQ
Matías Iturra Vega,M,97.5,100,1991-08-08,24,Genesis,SBD,Wraps,240,260,,260,170,-185,,170,270,,,270,700,Open,1
Franco Quijanes,M,100,100,1990-10-17,25,Gym My House,SBD,Wraps,180,195,-205,195,100,110,-120,110,190,-200,200,200,505,Open,2
Sebastián Hurtado,M,95.9,100,1997-11-15,18,Titanes Lifters,SBD,Wraps,160,-180,180,180,90,-100,-100,90,170,-180,-180,170,440,Open,3
Mauricio Cuevas,M,91.2,100,1987-07-26,28,Power Menace,SBD,Wraps,-110,110,120,120,70,-75,-75,70,140,160,180,180,370,Open,4
Fabián Acuña,M,92.9,100,1990-10-05,25,Titanes Lifters,SBD,Wraps,160,-170,,160,120,,-127.5,120,,,,,,Open,DQ
Cristopher Vega Belmar,M,103.8,110,1986-06-05,29,Gym My House,SBD,Wraps,210,232.5,-242.5,232.5,152.5,160,-165,160,240,260,-270,260,652.5,Open,1
Pablo Rojas,M,102,110,1990-08-07,25,Titanes Lifters,SBD,Wraps,120,-130,140,140,-100,-107.5,-107.5,,160,180,-200,180,,Open,DQ
Manuel Muñoz Baeza,M,112.5,125,1978-04-14,37,Genesis,SBD,Wraps,230,250,270,270,150,160,-170,160,270,290,300,300,730,Open,1
Daniel Lagos,M,110.2,125,1990-12-07,24,Gym My House,SBD,Wraps,210,230,250,250,155,160,-165,160,230,250,-260,250,660,Open,2
Enzo Castro,M,117.2,125,1984-09-02,31,Titanes Lifters,SBD,Wraps,230,250,-270,250,140,150,162.5,162.5,200,-220,225,225,637.5,Open,3
José Cortés,M,121,125,1992-10-07,23,Strencth Lab,SBD,Wraps,195,210,227.5,227.5,120,-127.5,130,130,235,252.5,-270,252.5,610,Open,4
Sergio Mardones Meza,M,139.8,140,1989-05-10,26,Espartanos,SBD,Wraps,310,330,-340,330,170,180,,180,260,280,-290,280,790,Open,1
Edgardo Leal Contreras,M,154.7,140+,1973-04-19,42,Titanes Lifters,SBD,Wraps,260,280,300,300,180,190,197.5,197.5,240,250,,250,747.5,Open,1
Leonardo Valladares,M,140.5,140+,1977-04-19,38,Espartanos,SBD,Wraps,240,250,,250,-180,180,195,195,,,,,,Open,DQ
