Place,Name,Sex,Event,Division,WeightClassKg,Equipment,BirthYear,State,BodyweightKg,Squat1Kg,Squat2Kg,Squat3Kg,Best3SquatKg,Bench1Kg,Bench2Kg,Bench3Kg,Best3BenchKg,Deadlift1Kg,Deadlift2Kg,Deadlift3Kg,Best3DeadliftKg,TotalKg
1,Kaydan Dorman,F,D,FR-Y1,35,Raw,2009,TX,30.30,,,,,,,,,50,55,60,60.0,60
1,Xi Guo,F,SBD,FR-Jr,52,Raw,1994,TX,52.00,-85,85,90,90.0,35,40,-45,40.0,87.5,95,100,100.0,230
1,Ruth Barajas,F,SBD,FR-Jr,57,Raw,1994,TX,56.80,120,125,127.5,127.5,47.5,50,-52.5,50.0,115,120,125,125.0,302.5
2,Elora Johnson,F,SBD,FR-Jr,57,Raw,1995,TX,56.50,72.5,-82.5,82.5,82.5,47.5,50,52.5,52.5,72.5,82.5,92.5,92.5,227.5
1,Martina Ruiz,F,SBD,FR-Jr,63,Raw,1998,TX,62.20,100,105,110,110.0,57.5,-60,-60,57.5,125,130,135,135.0,302.5
2,Sydney Chastain,F,SBD,FR-Jr,63,Raw,1995,TX,62.20,92.5,97.5,105,105.0,47.5,52.5,-57.5,52.5,107.5,115,-122.5,115.0,272.5
3,Jennifer Perez Momina,F,SBD,FR-Jr,63,Raw,1996,TX,62.00,82.5,-95,102.5,102.5,40,-52.5,-52.5,40.0,85,100,107.5,107.5,250
1,Kelsey Franklin,F,SBD,FR-Jr,72,Raw,1998,TX,68.80,115,122.5,127.5,127.5,70,72.5,-75,72.5,127.5,137.5,145,145.0,345
1,Micaela Betts,F,SBD,FR-Jr,84,Raw,1997,TX,83.20,82.5,95,105,105.0,40,47.5,-50,47.5,85,102.5,112.5,112.5,265
1,Delicia Garza,F,SBD,FR-Jr,84+,Raw,1996,TX,102.70,115,120,125,125.0,62.5,65,70,70.0,125,130,147.5,147.5,342.5
1,Jennifer Kroken,F,SBD,FR-M1a,84,Raw,1974,TX,79.80,117.5,127.5,137.5,137.5,70,75,77.5,77.5,137.5,142.5,147.5,147.5,362.5
1,Laura Juarez,F,SBD,FR-M1a,84+,Raw,1977,TX,103.10,92.5,97.5,-100,97.5,50,57.5,62.5,62.5,125,-132.5,140,140.0,300
1,Naomie Morgan,F,SBD,FR-M1b,84,Raw,1970,TX,83.00,102.5,110,-115,110.0,52.5,-55,55,55.0,137.5,142.5,-147.5,142.5,307.5
1,Elisa Zaiceva,F,SBD,FR-O,57,Raw,1990,TX,56.20,107.5,112.5,-120,112.5,52.5,55,-60,55.0,137.5,145,-150,145.0,312.5
1,Marisela Soto,F,SBD,FR-O,63,Raw,1993,TX,62.80,120,127.5,130,130.0,55,60,-62.5,60.0,120,125,-127.5,125.0,315
2,Jennifer Ho,F,SBD,FR-O,63,Raw,1989,TX,61.10,92.5,105,-115,105.0,50,55,-60,55.0,112.5,125,-130,125.0,285
3,Laura Summers,F,SBD,FR-O,63,Raw,1984,TX,61.70,102.5,105,107.5,107.5,55,-60,-60,55.0,-110,115,-120,115.0,277.5
1,Alex Sallade,F,SBD,FR-O,72,Raw,1988,TX,70.80,125,130,135,135.0,62.5,70,-72.5,70.0,135,142.5,147.5,147.5,352.5
2,Kathleen Iliff,F,SBD,FR-O,72,Raw,1991,TX,67.30,120,122.5,-127.5,122.5,65,67.5,-72.5,67.5,125,130,-137.5,130.0,320
3,Mona Groteguth,F,SBD,FR-O,72,Raw,1991,IN,68.40,97.5,102.5,-105,102.5,47.5,50,52.5,52.5,97.5,105,110,110.0,265
1,Kathryn Mazza,F,SBD,FR-O,84,Raw,1990,TX,77.30,150,155,160,160.0,92.5,95,-97.5,95.0,155,160,165,165.0,420
2,Kaili Echevarria,F,SBD,FR-O,84,Raw,1989,TX,76.50,122.5,130,-137.5,130.0,85,90,-92.5,90.0,145,150,157.5,157.5,377.5
3,Alexis Owens,F,SBD,FR-O,84,Raw,1991,TX,81.40,130,140,145,145.0,60,70,77.5,77.5,125,-140,140,140.0,362.5
4,Corina Collins,F,SBD,FR-O,84,Raw,1997,TX,74.20,105,115,-127.5,115.0,42.5,52.5,57.5,57.5,115,125,-137.5,125.0,297.5
5,Elizabeth Snelling,F,SBD,FR-O,84,Raw,1988,TX,82.50,102.5,-115,115,115.0,55,-57.5,-57.5,55.0,110,125,-137.5,125.0,295
1,Avery Clark #2,F,SBD,FR-T2,72,Raw,2000,TX,68.60,95,100,-105,100.0,35,-42.5,-42.5,35.0,-97.5,-100,100,100.0,235
1,Madison Hamilton,F,SBD,FR-Y3,52,Raw,2005,TX,47.70,62.5,70,75,75.0,32.5,37.5,40,40.0,82.5,95,100,100.0,215
DQ,Karlene Stelling,F,SBD,F-T2,72,Single-ply,2002,TX,72.00,92.5,100,107.5,107.5,-55,-55,-55,,-102.5,102.5,107.5,107.5,
1,Lucas Sosebee,M,SBD,M-Jr,66,Single-ply,1996,TX,65.60,160,167.5,172.5,172.5,115,122.5,132.5,132.5,170,175,185,185.0,490
1,Dalton Adkins,M,SBD,M-Jr,74,Single-ply,1998,TX,72.50,227.5,-237.5,-237.5,227.5,147.5,160,-182.5,160.0,192.5,205,-227.5,205.0,592.5
1,Xavier Lopez,M,SBD,MR-Jr,74,Raw,1995,TX,71.60,175,185,190,190.0,102.5,110,115,115.0,205,220,-227.5,220.0,525
2,Erik Torres,M,SBD,MR-Jr,74,Raw,1997,TX,69.80,142.5,155,160,160.0,102.5,-112.5,112.5,112.5,185,190,,190.0,462.5
3,Rayyan Kubbara,M,SBD,MR-Jr,74,Raw,1995,OK,67.60,130,135,137.5,137.5,80,-87.5,-87.5,80.0,170,-190,,170.0,387.5
1,Daniel Hernandez,M,SBD,MR-Jr,83,Raw,1997,TX,82.10,167.5,177.5,187.5,187.5,115,122.5,-130,122.5,167.5,182.5,-190,182.5,492.5
2,Raul Estrada,M,SBD,MR-Jr,83,Raw,1997,TX,78.10,165,172.5,180,180.0,90,95,-97.5,95.0,190,202.5,215,215.0,490
1,Camden Wilson,M,SBD,MR-Jr,93,Raw,1996,TX,90.90,190,195,205,205.0,140,150,155,155.0,200,215,227.5,227.5,587.5
1,Eric Johnson,M,SBD,MR-Jr,105,Raw,1996,TX,104.30,-227.5,242.5,257.5,257.5,140,145,-150,145.0,252.5,-265,-272.5,252.5,655
2,Schyler Brown,M,SBD,MR-Jr,105,Raw,1996,TX,96.90,160,170,177.5,177.5,107.5,-112.5,-112.5,107.5,180,192.5,-205,192.5,477.5
1,Gilberto Quintero,M,SBD,MR-Jr,120+,Raw,1996,TX,126.80,207.5,237.5,245,245.0,-152.5,-160,165,165.0,252.5,265,277.5,277.5,687.5
1,Phillip Wylie,M,SBD,MR-M2a,105,Raw,1965,TX,104.60,187.5,192.5,205,205.0,137.5,-145,-145,137.5,205,227.5,-237.5,227.5,570
1,Joshua Campos,M,SBD,MR-O,74,Raw,1990,TX,73.60,150,152.5,157.5,157.5,95,97.5,100,100.0,182.5,192.5,-202.5,192.5,450
1,Michael Edwards,M,SBD,MR-O,83,Raw,1986,TX,82.00,192.5,205,-210,205.0,142.5,-147.5,147.5,147.5,200,220,-240,220.0,572.5
2,Clayton Collins,M,SBD,MR-O,83,Raw,1989,TX,83.00,175,185,-190,185.0,147.5,-152.5,152.5,152.5,220,230,-235,230.0,567.5
3,Chris Cipriani,M,SBD,MR-O,83,Raw,1995,TX,79.10,-142.5,152.5,165,165.0,-100,-112.5,115,115.0,190,212.5,227.5,227.5,507.5
4,Ian Imlach,M,SBD,MR-O,83,Raw,1991,TX,82.20,165,175,182.5,182.5,-115,122.5,-127.5,122.5,175,187.5,195,195.0,500
5,Michael Cerza,M,SBD,MR-O,83,Raw,1992,TX,81.80,165,-175,175,175.0,112.5,117.5,-125,117.5,170,182.5,-187.5,182.5,475
1,Matthew Poisson,M,SBD,MR-O,93,Raw,1991,TX,92.50,210,220,-222.5,220.0,145,-152.5,-152.5,145.0,220,-227.5,-227.5,220.0,585
2,Alexis Garcia #8,M,SBD,MR-O,93,Raw,1994,TX,89.90,185,190,195,195.0,127.5,137.5,145,145.0,227.5,-232.5,235,235.0,575
3,Darryl Womack,M,SBD,MR-O,93,Raw,1983,TX,90.60,177.5,190,200,200.0,107.5,115,122.5,122.5,220,235,-245,235.0,557.5
4,Marvin Polanco,M,SBD,MR-O,93,Raw,1990,TX,91.30,187.5,197.5,-205,197.5,-135,135,-137.5,135.0,225,-247.5,-247.5,225.0,557.5
5,Darryl White,M,SBD,MR-O,93,Raw,1995,TX,92.40,172.5,182.5,202.5,202.5,120,132.5,-142.5,132.5,200,210,220,220.0,555
6,Christopher Schumacher,M,SBD,MR-O,93,Raw,1984,TX,90.40,160,170,175,175.0,115,120,125,125.0,185,202.5,215,215.0,515
1,Kevin Alvarez,M,SBD,MR-O,105,Raw,1990,TX,102.30,255,272.5,280,280.0,167.5,177.5,182.5,182.5,272.5,282.5,290,290.0,752.5
2,Michael Battaglino,M,SBD,MR-O,105,Raw,1985,TX,104.10,225,240,250,250.0,137.5,142.5,145,145.0,255,275,285,285.0,680
3,Antonio Stayton,M,SBD,MR-O,105,Raw,1992,OK,98.50,177.5,197.5,210,210.0,147.5,-157.5,177.5,177.5,202.5,227.5,-250,227.5,615
4,Matt Shoemaker,M,SBD,MR-O,105,Raw,1991,OK,95.80,195,205,212.5,212.5,140,-147.5,-147.5,140.0,237.5,-252.5,,237.5,590
5,Adam Delgado,M,SBD,MR-O,105,Raw,1986,TX,93.60,-165,165,175,175.0,142.5,147.5,-155,147.5,185,190,200,200.0,522.5
1,David Fritsch,M,SBD,MR-O,120,Raw,1979,TX,110.10,257.5,272.5,282.5,282.5,170,182.5,-192.5,182.5,272.5,-295,-295,272.5,737.5
2,Paul Gallagher,M,SBD,MR-O,120,Raw,1985,TX,117.40,185,200,215,215.0,155,162.5,167.5,167.5,190,210,230,230.0,612.5
3,Enrique Infante,M,SBD,MR-O,120,Raw,1982,TX,118.00,205,220,230,230.0,152.5,157.5,160,160.0,190,210,-230,210.0,600
4,Colin Kanavel,M,SBD,MR-O,120,Raw,1991,TX,119.50,200,210,220,220.0,115,120,125,125.0,210,230,-235,230.0,575
5,Jesse Elizardo,M,SBD,MR-O,120,Raw,1986,TX,106.40,-147.5,160,170,170.0,-105,105,120,120.0,157.5,175,182.5,182.5,472.5
1,Matthew Warren,M,SBD,MR-O,120+,Raw,1990,OK,167.30,235,260,272.5,272.5,152.5,170,-182.5,170.0,245,265,-272.5,265.0,707.5
1,Tristan Myers,M,SBD,MR-T2,105,Raw,2000,TX,102.10,225,240,255,255.0,165,-175,-175,165.0,205,225,-227.5,225.0,645
1,Brandon Walker,M,SBD,MR-T3,93,Raw,2000,TX,85.90,152.5,-160,-160,152.5,90,95,-97.5,95.0,182.5,187.5,197.5,197.5,445
1,Austin Gruenzner,M,SBD,MR-T3,120,Raw,1998,TX,119.60,142.5,155,172.5,172.5,130,137.5,-142.5,137.5,180,190,200,200.0,510
2,Jacob Morgan,M,SBD,MR-T3,120,Raw,1998,TX,111.60,137.5,150,175,175.0,92.5,97.5,105,105.0,200,-227.5,-227.5,200.0,480
1,Alejandro Estrada,M,SBD,MR-T3,120+,Raw,1998,TX,143.50,160,170,-175,170.0,-80,92.5,-97.5,92.5,-170,-170,170,170.0,432.5
1,Ty Denges,M,SBD,MR-Y2,59,Raw,2006,TX,56.40,62.5,70,75,75.0,35,37.5,-40,37.5,67.5,75,77.5,77.5,190
1,Brian Redwine,M,SBD,M-T3,83,Single-ply,1999,TX,81.10,-130,130,-142.5,130.0,70,85,95,95.0,145,160,170,170.0,395
2,Logan Hoedebeck,M,SBD,M-T1,83,Single-ply,2002,TX,80.00,120,122.5,125,125.0,80,85,-87.5,85.0,145,150,157.5,157.5,367.5
