Division,WeightClassKg,Place,Name,Team,BodyweightKg,Best3SquatKg,Best3BenchKg,Best3DeadliftKg,TotalKg,Equipment,Event,Sex,BirthDate
Girls,44.23,1,Kaila Gonzalez,McAllen,42.82,124.74,65.77,106.59,297.1,Single-ply,SBD,F,
Girls,44.23,2,Destiny Perez,Rio Grande City Grulla,44.18,117.93,52.16,115.67,285.76,Single-ply,SBD,F,
Girls,44.23,3,Lynnette Lopez,McAllen,42.18,90.72,40.82,97.52,229.06,Single-ply,SBD,F,
Girls,44.23,DQ,Arianna Malacara,McAllen Memorial,42.91,102.06,43.09,,,Single-ply,SBD,F,
Girls,47.85,1,Yaleina Ramirez,McAllen Rowe,47.72,113.4,56.7,120.2,290.3,Single-ply,SBD,F,
Girls,47.85,2,Kassandra Falcon,McAllen Memorial,46.9,102.06,56.7,113.4,272.16,Single-ply,SBD,F,
Girls,47.85,3,Briana Cantu,Sharyland Pioneer,47.72,97.52,52.16,115.67,265.35,Single-ply,SBD,F,
Girls,47.85,4,Jennifer Villarreal,Sharyland Pioneer,47.58,88.45,65.77,104.33,258.55,Single-ply,SBD,F,
Girls,47.85,5,Cassey De La Rosa,PSJA North,45.09,97.52,43.09,102.06,242.67,Single-ply,SBD,F,
Girls,47.85,6,Hailey Aul,Sharyland Pioneer,47.76,77.11,49.9,106.59,233.6,Single-ply,SBD,F,
Girls,47.85,7,Evalyn Villarreal,La Joya,46.36,86.18,43.09,95.25,224.53,Single-ply,SBD,F,
Girls,47.85,8,Zulimar Vasquez,McAllen Rowe,47.08,83.91,36.29,97.52,217.72,Single-ply,SBD,F,
Girls,47.85,9,Kailyn Gomez,McAllen Rowe,47.76,83.91,40.82,86.18,210.92,Single-ply,SBD,F,
Girls,47.85,10,Cecilia Aguilera,La Joya Juarez-Lincoln,47.36,74.84,29.48,81.65,185.97,Single-ply,SBD,F,
Girls,47.85,DQ,Leslie Sequera,McAllen,47.17,,,,,Single-ply,SBD,F,
Girls,47.85,DQ,Yovana Perez,La Joya Juarez-Lincoln,46.13,86.18,43.09,,,Single-ply,SBD,F,
Girls,51.94,1,Jennifer Prado,McAllen Memorial,49.85,122.47,68.04,124.74,315.25,Single-ply,SBD,F,
Girls,51.94,2,Julie Ramirez,PSJA North,50.98,142.88,54.43,117.93,315.25,Single-ply,SBD,F,
Girls,51.94,3,Kc Aguilera,Mission,51.3,149.69,61.23,104.33,315.25,Single-ply,SBD,F,
Girls,51.94,4,Aisa Saldana,Sharyland Pioneer,51.89,111.13,49.9,106.59,267.62,Single-ply,SBD,F,
Girls,51.94,5,Cassidy Gomez,McAllen Rowe,50.85,113.4,47.63,104.33,265.35,Single-ply,SBD,F,
Girls,51.94,6,Victoria Razo,La Joya Juarez-Lincoln,51.89,83.91,47.63,99.79,231.33,Single-ply,SBD,F,
Girls,51.94,7,Jazlyn Hernandez,La Joya,50.98,70.31,40.82,88.45,199.58,Single-ply,SBD,F,
Girls,51.94,8,Danielle Puga,Mission,49.58,79.38,36.29,74.84,190.51,Single-ply,SBD,F,
Girls,51.94,DQ,Alexsys De La Garz,McAllen Rowe,48.94,92.99,,,,Single-ply,SBD,F,
Girls,51.94,DQ,Aljandra Garcia,Sharyland Pioneer,51.48,,,,,Single-ply,SBD,F,
Girls,56.02,1,Sheyla Cantu,La Joya Juarez-Lincoln,54.93,131.54,68.04,131.54,331.12,Single-ply,SBD,F,
Girls,56.02,2,Aleena Chavez,Mission,55.16,133.81,58.97,117.93,310.71,Single-ply,SBD,F,
Girls,56.02,3,Keilah Sauceda,PSJA North,55.97,108.86,49.9,108.86,267.62,Single-ply,SBD,F,
Girls,56.02,4,Venya Gonzalez,La Joya,55.16,92.99,45.36,104.33,242.67,Single-ply,SBD,F,
Girls,56.02,5,Emillie Angon,McAllen Rowe,53.25,92.99,43.09,88.45,224.53,Single-ply,SBD,F,
Girls,56.02,6,Ayleen Perez,Mission,53.71,68.04,43.09,90.72,201.85,Single-ply,SBD,F,
Girls,56.02,7,Yahlitza Rosalos,La Joya,54.43,68.04,34.02,92.99,195.04,Single-ply,SBD,F,
Girls,56.02,8,Itzel Zuniga,La Joya,52.66,58.97,40.82,92.99,192.78,Single-ply,SBD,F,
Girls,56.02,DQ,Victoria Ortega,La Joya,54.11,122.47,56.7,,,Single-ply,SBD,F,
Girls,60.1,1,Vianney Escamilla,Mission,60.06,133.81,63.5,129.27,326.59,Single-ply,SBD,F,
Girls,60.1,2,Natalie Trevino,PSJA North,58.51,122.47,49.9,115.67,288.03,Single-ply,SBD,F,
Girls,60.1,DQ,Issa Benavides,McAllen,58.56,,,,,Single-ply,SBD,F,
Girls,60.1,DQ,Adriana Reyes,La Joya Palmview,60.01,,,,,Single-ply,SBD,F,
Girls,67.36,1,Alyssa Alvarado,McAllen Memorial,66.77,181.44,92.99,158.76,433.18,Single-ply,SBD,F,
Girls,67.36,2,Alyssa Moreno,McAllen Memorial,66.59,181.44,95.25,140.61,417.3,Single-ply,SBD,F,
Girls,67.36,3,Jessica Montes,McAllen Memorial,64.05,163.29,83.91,149.69,396.89,Single-ply,SBD,F,
Girls,67.36,4,Marialline Loera,Sharyland Pioneer,66.41,142.88,72.57,142.88,358.34,Single-ply,SBD,F,
Girls,67.36,5,Alexia Rosas,La Joya Juarez-Lincoln,67.36,145.15,72.57,124.74,342.46,Single-ply,SBD,F,
Girls,67.36,6,Jennifer Duarte,McAllen,64.59,133.81,56.7,138.35,328.85,Single-ply,SBD,F,
Girls,67.36,7,Rebecca Cavazos,McAllen Rowe,63.73,131.54,65.77,115.67,312.98,Single-ply,SBD,F,
Girls,67.36,8,Abby Yzaguirre,PSJA North,64.86,127.01,63.5,113.4,303.91,Single-ply,SBD,F,
Girls,67.36,9,Karyme Castellanos,La Joya Palmview,64.41,131.54,49.9,115.67,297.1,Single-ply,SBD,F,
Girls,67.36,10,Klarissa Garcia,La Joya Palmview,65.63,124.74,49.9,108.86,283.5,Single-ply,SBD,F,
Girls,67.36,11,Galilea Vargas,La Joya,65.14,102.06,54.43,120.2,276.69,Single-ply,SBD,F,
Girls,67.36,12,Ashley Maldonado,La Joya,62.1,108.86,38.56,106.59,254.01,Single-ply,SBD,F,
Girls,67.36,13,Crysania Zimmerman,McAllen Rowe,62.37,79.38,43.09,92.99,215.46,Single-ply,SBD,F,
Girls,67.36,DQ,Kassandra Mendiola,La Joya Palmview,65.23,176.9,81.65,,,Single-ply,SBD,F,
Girls,75.07,1,Lili Bradford,McAllen Memorial,73.26,197.31,108.86,174.63,480.81,Single-ply,SBD,F,
Girls,75.07,2,Alyssa Echazarreta,McAllen,74.03,167.83,77.11,142.88,387.82,Single-ply,SBD,F,
Girls,75.07,3,Monique Garza,McAllen,74.84,165.56,74.84,124.74,365.14,Single-ply,SBD,F,
Girls,75.07,4,Lesly Partida,La Joya Juarez-Lincoln,68.27,147.42,58.97,117.93,324.32,Single-ply,SBD,F,
Girls,75.07,5,Alisa Ramirez,McAllen Rowe,68.86,129.27,61.23,129.27,319.78,Single-ply,SBD,F,
Girls,75.07,6,Samantha Garza,McAllen Rowe,68.58,92.99,52.16,113.4,258.55,Single-ply,SBD,F,
Girls,75.07,7,Taylor Marasco,Sharyland Pioneer,74.12,104.33,47.63,102.06,254.01,Single-ply,SBD,F,
Girls,75.07,8,Evelyn Rodriguez,Mission,70.08,86.18,31.75,79.38,197.31,Single-ply,SBD,F,
Girls,75.07,DQ,Faith Martinez,McAllen Rowe,74.8,,,,,Single-ply,SBD,F,
Girls,82.33,1,Allyson Gutierrez,McAllen Memorial,79.83,167.83,74.84,170.1,412.77,Single-ply,SBD,F,
Girls,82.33,2,Leticia Flores,PSJA North,80.69,149.69,83.91,142.88,376.48,Single-ply,SBD,F,
Girls,82.33,3,Violette Bazan,Rio Grande City Grulla,75.43,138.35,54.43,140.61,333.39,Single-ply,SBD,F,
Girls,82.33,4,Aaliyah Logan,Mission,78.47,136.08,63.5,99.79,299.37,Single-ply,SBD,F,
Girls,82.33,5,Melinda Benitez,Rio Grande City Grulla,77.47,120.2,56.7,97.52,274.42,Single-ply,SBD,F,
Girls,82.33,6,Victoria De La Rosa,PSJA North,80.33,111.13,49.9,108.86,269.89,Single-ply,SBD,F,
Girls,82.33,DQ,Loren Gonzalez,McAllen Memorial,79.56,,,,,Single-ply,SBD,F,
Girls,82.33,DQ,Keilah Sustaita,Sharyland Pioneer,78.61,106.59,,,,Single-ply,SBD,F,
Girls,82.33,DQ,Jeweliana Rosas,La Joya Juarez-Lincoln,80.38,181.44,81.65,,,Single-ply,SBD,F,
Girls,90.04,1,Estella Prado,McAllen Memorial,89.72,165.56,72.57,161.03,399.16,Single-ply,SBD,F,
Girls,90.04,2,Alexia Guerrero,McAllen,88.77,154.22,79.38,136.08,369.68,Single-ply,SBD,F,
Girls,90.04,3,Lori Uvalle,PSJA North,88.59,142.88,72.57,131.54,347,Single-ply,SBD,F,
Girls,90.04,4,Hally Cuevas,PSJA North,87.82,136.08,74.84,120.2,331.12,Single-ply,SBD,F,
Girls,90.04,5,Sabrina Castillo,McAllen,82.74,124.74,58.97,129.27,312.98,Single-ply,SBD,F,
Girls,90.04,DQ,Odalyz Saenz,La Joya Juarez-Lincoln,83.96,127.01,58.97,,,Single-ply,SBD,F,
Girls,90.04,DQ,Laura Alaniz,McAllen Rowe,87.91,,,,,Single-ply,SBD,F,
Girls,100.02,1,Valeria Santiago,McAllen Memorial,99.16,183.7,104.33,149.69,437.72,Single-ply,SBD,F,
Girls,100.02,2,Kassandra Garza,Mission,98.38,161.03,70.31,122.47,353.8,Single-ply,SBD,F,
Girls,100.02,3,Paloma Samaniego,PSJA North,98.75,124.74,74.84,115.67,315.25,Single-ply,SBD,F,
Girls,100.02,DQ,Shaddai Garcia,La Joya,97.57,,,,,Single-ply,SBD,F,
Girls,117.71,1,Erika Guerrero,Mission,105.1,242.67,111.13,131.54,485.34,Single-ply,SBD,F,
Girls,117.71,2,Jocelyn Benavidez,Rio Grande City Grulla,116.71,204.12,81.65,161.03,446.79,Single-ply,SBD,F,
Girls,117.71,3,Leah Cantu,McAllen Memorial,112.22,181.44,122.47,136.08,439.98,Single-ply,SBD,F,
Girls,117.71,4,Brisa Barrientos,La Joya,101.65,174.63,86.18,145.15,405.97,Single-ply,SBD,F,
Girls,117.71,5,Giovanni Rodriguez #1,McAllen,103.15,145.15,74.84,145.15,365.14,Single-ply,SBD,F,
Girls,117.71,6,Sara Arista,PSJA North,116.71,181.44,65.77,111.13,358.34,Single-ply,SBD,F,
Girls,117.71,7,Marisol Trevino,Rio Grande City Grulla,108.23,106.59,45.36,99.79,251.74,Single-ply,SBD,F,
Girls,117.71+,1,Nayely Leyva,La Joya,119.02,154.22,70.31,140.61,365.14,Single-ply,SBD,F,
Girls,117.71+,DQ,Dayah Enriquez,McAllen,123.1,,,,,Single-ply,SBD,F,
