Sex,Division,WeightClassKg,Name,BirthDate,BodyweightKg,Deadlift1Kg,Deadlift2Kg,Deadlift3Kg,Best3DeadliftKg,TotalKg,Place,Event,Equipment
M,Open,100,Achille Marrone,1962-06-18,96.2,275,290,-300,290,290,2,D,Single-ply
M,Open,75,Ahmed Mohsen,1994-05-10,75,140,-150,-150,140,140,18,D,Single-ply
M,Open,82.5,Alan Bertolini,1983-10-13,82,260,-272.5,280,280,280,1,D,Single-ply
M,Open,100,Alberto Vai,1964-04-02,94.9,190,200,210,210,210,13,D,Single-ply
M,Open,100,Alessandro Binfarè,1988-10-21,93,-210,210,230,230,230,9,D,Single-ply
M,Open,90,Alessandro Favorito,1965-10-18,89.1,270,-280,,270,270,3,D,Single-ply
M,Open,75,Alessandro Sassi,1987-08-23,69.9,145,160,-170,160,160,17,D,Single-ply
M,Open,90,Alessandro Silvas,1972-05-01,88.4,265,275,282.5,282.5,282.5,1,D,Single-ply
F,Open,75,Alessia Aquili,1980-05-18,70.6,160,-170,170,170,170,1,D,Single-ply
F,Open,56,Alessia Rodina,1975-01-30,52.7,140,151,160,160,160,1,D,Single-ply
M,Open,100,Alessio Marazzini,1980-03-17,91.2,235,245,-250,245,245,4,D,Single-ply
M,Open,90,Alex Barattoni,1981-01-14,88.2,200,215,-225,215,215,15,D,Single-ply
M,Open,125+,Andrea Marino,1973-01-17,125.5,180,190,200,200,200,4,D,Single-ply
M,Open,67.5,Andrea Zaino,1981-11-27,66.4,195,207.5,217.5,217.5,217.5,3,D,Single-ply
M,Open,75,Andrei Dobre,1989-04-23,74.4,160,170,180,180,180,15,D,Single-ply
F,Master I,67.5,Antonietta Orsini,1964-06-13,65.7,190,200,210,210,210,1,D,Single-ply
M,Open,100,Antonio Angeli,1955-09-17,98.3,225,240,-250,240,240,7,D,Single-ply
M,Open,100,Antonio Foroni,1974-08-22,99.4,300,315,-322.5,315,315,1,D,Single-ply
M,Open,82.5,Antonio Mastrogiovanni,1981-08-05,82,220,-230,-230,220,220,12,D,Single-ply
M,Open,75,Antonio Mastrolonardo,1973-03-16,73.3,160,180,-200,180,180,14,D,Single-ply
M,Master II,125,Antonio Russo,1958-03-08,111.6,310,320,-342.5,320,320,1,D,Single-ply
F,Master I,75,Barbara Galimberti,1970-06-10,69.1,140,150,160,160,160,1,D,Single-ply
F,Open,48,Barbara Peti,1976-11-02,46.9,92.5,100,110,110,110,1,D,Single-ply
M,Open,82.5,Boris Borsuks,1984-12-04,82.5,150,165,180,180,180,21,D,Single-ply
M,Master II,90,Carlo DeCarli,1957-03-12,87.6,240,250,260,260,260,1,D,Single-ply
M,Master I,100,Carlo Ferrari,1970-05-03,99,310,321,330,330,330,1,D,Single-ply
F,Open,60,Chiara Burchi,1981-04-28,58.6,80,90,-100,90,90,1,D,Single-ply
M,Open,100,Claudio Barozzi,1963-04-23,91.5,200,215,230,230,230,8,D,Single-ply
M,Open,90,Claudio Portugalli,1957-12-12,84.8,190,200,210,210,210,16,D,Single-ply
M,Open,125+,Claudio Randazzo,1978-05-14,125.4,250,260,270,270,270,2,D,Single-ply
M,Open,82.5,Corrado Carrer,1978-05-18,81.6,-230,230,-240,230,230,10,D,Single-ply
M,Open,100,Cristian Voso,1971-04-12,97.1,270,-285,-292.5,270,270,3,D,Single-ply
M,Open,75,Cristiano Morresi,1979-07-30,70.9,227.5,240,-245,240,240,5,D,Single-ply
M,Open,90,Damiano DiPilla Lucatelli,1985-10-13,85.6,245,260,270,270,270,2,D,Single-ply
M,Master I,90,Daniele Ghirardi,1969-10-17,90,330,350.5,,350.5,350.5,1,D,Single-ply
M,Open,60,Daniele Tarchi,1981-06-15,58.8,190,210,-215,210,210,2,D,Single-ply
M,Open,90,Davide Dealbi,1975-02-19,84.4,230,245,255,255,255,6,D,Single-ply
M,Sub-Junior,82.5,Davide Manna,,80.3,210,230,251,251,251,1,D,Single-ply
M,Open,125,Emidio Farina,1975-03-24,116.5,290,300,310,310,310,1,D,Single-ply
M,Open,110,Enrico Bomboletti,1970-12-19,108.3,270,280,285,285,285,2,D,Single-ply
F,Open,56,Eva Mantegazza,1977-11-11,56,75,90,100,100,100,4,D,Single-ply
M,Open,90,Fabiano Fulvi,1969-07-23,88.8,240,-260,-265,240,240,9,D,Single-ply
M,Open,82.5,Fabio Falzoi,1984-02-12,79.9,190,205,212.5,212.5,212.5,13,D,Single-ply
M,Open,100,Fabio Giambrone,1983-02-08,94.5,205,215,220,220,220,10,D,Single-ply
M,Open,90,Fabio Morello,1976-05-10,89.6,240,255,262.5,262.5,262.5,4,D,Single-ply
M,Open,75,Fabio Nadotti,1987-07-13,73.5,190,200,-205,200,200,13,D,Single-ply
M,Open,82.5,Fabio Pantaleoni,1985-09-02,78.9,180,195,-212.5,195,195,19,D,Single-ply
M,Open,67.5,Fabio Previti,1973-10-22,66.4,-170,-170,-170,,,DQ,D,Single-ply
M,Open,67.5,Fabio Sanginiti,1989-10-14,64.5,160,-175,175,175,175,9,D,Single-ply
M,Open,82.5,Federico Comoglio,1986-10-03,77.4,210,-220,-220,210,210,14,D,Single-ply
M,Sub-Junior,75,Federico Pregnolato,1991-07-10,74.1,180,195,-202.5,195,195,1,D,Single-ply
M,Master I,125,Francesco Baldassarre,1967-05-04,112.6,300,341,-352.5,341,341,1,D,Single-ply
M,Open,125,Francesco Pelizza,1986-10-01,112.3,-270,-290,-290,,,DQ,D,Single-ply
M,Open,110,Francesco Pellizzoni,1977-07-22,107.5,300,320,-330,320,320,1,D,Single-ply
M,Open,110,Francesco Sudano,1979-10-16,107.4,220,240,-250,240,240,5,D,Single-ply
M,Open,75,Francisco Palmisano,1976-07-03,74.1,220,230,-235,230,230,6,D,Single-ply
M,Open,60,Franco Giummarra,1950-01-12,58.4,200,210,-215,210,210,1,D,Single-ply
M,Open,90,Gabriele Gangarossa,1980-12-07,83.4,225,237.5,-245,237.5,237.5,10,D,Single-ply
F,Open,56,Gabriella Maganes,1985-07-24,55.3,100,110,115,115,115,3,D,Single-ply
M,Open,90,Giancarlo Marino,1961-06-02,89.3,150,160,-180,160,160,20,D,Single-ply
M,Open,90,Giancarlo Natale,1982-06-24,86.3,210,225,240,240,240,8,D,Single-ply
M,Open,110,Gianluca Bellandi,1977-01-21,109.8,200,220,235,235,235,6,D,Single-ply
M,Open,67.5,Gianluca Dino,1985-04-01,66.9,170,180,190,190,190,8,D,Single-ply
M,Open,90,Gianluca Pisano,1985-11-15,85.2,210,225,-230,225,225,13,D,Single-ply
M,Open,90,Gianluca Pomarico,1990-02-14,89.2,200,215,230,230,230,11,D,Single-ply
M,Master II,82.5,Giorgio Agostinoni,1958-02-20,81.3,255,-267.5,-267.5,255,255,1,D,Single-ply
M,Open,90,Giovanni Erba,1990-08-01,89.5,210,220,-225,220,220,14,D,Single-ply
M,Open,82.5,Giuseppe Dabundo,1975-05-11,80.7,230,240,250,250,250,5,D,Single-ply
M,Open,82.5,Giuseppe Manca,1990-07-28,80,220,240,-252.5,240,240,6,D,Single-ply
M,Open,125+,Giuseppe Pellino,1981-12-27,125.5,280,300,-310,300,300,1,D,Single-ply
M,Open,82.5,Giuseppe Tozza,1979-11-09,82.5,190,-200,200,200,200,18,D,Single-ply
M,Open,75,Guido Cucciniello,1980-03-20,72.2,190,210,220,220,220,9,D,Single-ply
M,Open,110,Jacopo Mastrostefano,1983-09-26,104.4,255,-280,-280,255,255,3,D,Single-ply
M,Open,75,Lanno Costanzi,1969-12-10,74.5,235,250,260,260,260,1,D,Single-ply
F,Master II,60,Laura Locatelli,1957-04-12,59,180,187.5,192.5,192.5,192.5,1,D,Single-ply
M,Open,82.5,Leonardo Corsi,1982-05-27,81.1,245,-255,255,255,255,4,D,Single-ply
M,Open,67.5,Lorenzo Corradini,1984-03-28,66.8,210,-225,-225,210,210,5,D,Single-ply
M,Open,75,Luigi Danielli,1961-10-23,73.3,220,-235.5,-235.5,220,220,11,D,Single-ply
M,Open,110,Luigino Vitali,1984-04-08,102,-230,240,250,250,250,4,D,Single-ply
M,Open,82.5,Marco Bianchi,1988-11-29,80.7,235,-252.5,-257.5,235,235,8,D,Single-ply
M,Open,75,Marco Millul,1984-07-29,73.8,175,-190,-190,175,175,16,D,Single-ply
M,Open,125,Marco Monti,1979-10-30,119,230,245,260,260,260,5,D,Single-ply
M,Open,82.5,Marco Rencanati,1982-04-12,80,170,190,-210,190,190,20,D,Single-ply
F,Master I,82.5,Maria Pia Moscianese,1963-03-23,76.8,160,175,190,190,190,1,D,Single-ply
F,Open,52,Maria Pia Salemme,1975-05-25,49.7,147.5,150,-155,150,150,1,D,Single-ply
M,Open,82.5,Mario Ronsisvalle,1980-07-10,80.9,230,235,-242.5,235,235,9,D,Single-ply
M,Open,100,Mario Scarascia,1986-06-19,92,190,205,215,215,215,11,D,Single-ply
M,Open,75,Massimiliano Buccioni,1976-02-24,74.2,210,225,-240,225,225,8,D,Single-ply
M,Open,125+,Massimo Sgaramella,1977-04-05,152.2,245,-255,-255,245,245,3,D,Single-ply
M,Open,67.5,Matteo Parlascino,1984-07-21,66.6,195,210,-215,210,210,4,D,Single-ply
M,Open,125,Mattia Di Martino,1988-04-27,114.7,260,270,-275,270,270,4,D,Single-ply
M,Open,75,Mauro Cosmai,1980-01-05,74,230,245,255,255,255,2,D,Single-ply
M,Open,67.5,Michelangelo Pasquale,1974-02-08,66.3,210,220,225,225,225,2,D,Single-ply
M,Open,100,Michele Degiampietro,1969-10-29,95.8,215,225,240,240,240,5,D,Single-ply
M,Open,82.5,Mohamed Barjaoui,1966-07-18,78.1,180,190,205,205,205,15,D,Single-ply
M,Open,75,Noriano Coppari,1951-02-02,74.6,-230,230,-240,230,230,7,D,Single-ply
M,Open,75,Paolo Campli,1986-01-05,72.3,200,210,220,220,220,10,D,Single-ply
M,Open,60,Paolo Imbalzano,1978-01-23,58.8,180,-195,-200,180,180,3,D,Single-ply
M,Open,125,Paolo Pollastri,1963-08-28,112.5,250,260,270,270,270,3,D,Single-ply
F,Open,82.5,Paula Laddach,1987-01-18,77.2,70,90,-100,90,90,1,D,Single-ply
M,Open,67.5,Pierangelo Puddu,1977-12-24,67.4,232.5,242.5,250,250,250,1,D,Single-ply
M,Open,125,Pierantonio Vecchio,1967-04-22,118.2,250,270,275,275,275,2,D,Single-ply
M,Sub-Junior,67.5,Piero Fusco,1992-03-24,64,155,165,175.5,175.5,175.5,1,D,Single-ply
M,Sub-Junior,110,Piero Liuzzi,,102,-250,260,275,275,275,1,D,Single-ply
M,Open,125,Renato Gismondi,1960-09-06,118.3,240,255,-270,255,255,6,D,Single-ply
M,Open,90,Riccardo Malegori,1975-06-27,88.8,240,255,-270,255,255,7,D,Single-ply
M,Junior,82.5,Riccardo Marazzini,1990-02-19,81.2,250,255,-262.5,255,255,1,D,Single-ply
F,Open,52,Roberta Monaco,1975-01-12,51.4,110,120,-130,120,120,3,D,Single-ply
M,Open,90,Roberto Bettati,1964-04-01,89.7,230,,,230,230,12,D,Single-ply
M,Open,75,Roberto Calandra,1981-05-19,74.3,225,235,247.5,247.5,247.5,3,D,Single-ply
M,Open,75,Roberto Giacchero,1978-07-16,70.3,190,210,-215,210,210,12,D,Single-ply
M,Open,67.5,Roberto Malegori,1990-12-02,65.6,175,-190,190,190,190,7,D,Single-ply
M,Open,82.5,Salvatore Venuto,1957-02-24,82,225,240,-250,240,240,7,D,Single-ply
M,Open,90,Sandro Rossi,1952-08-09,88.6,240,260,-270,260,260,5,D,Single-ply
F,Master II,82.5,Sara Del Duca,1954-09-30,76.6,150,160,170,170,170,1,D,Single-ply
M,Open,82.5,Sergio Zanetti,1945-01-02,78.8,205,-215,-215,205,205,16,D,Single-ply
M,Open,110,Silvio Crisafi,1980-10-02,105.5,-300,-300,-300,,,DQ,D,Single-ply
M,Open,90,Simone Rubessi,1990-09-25,85.4,190,-200,-200,190,190,18,D,Single-ply
M,Open,82.5,Simone Vignale,1990-04-08,77.1,220,227.5,-230,227.5,227.5,11,D,Single-ply
M,Open,100,Stefano Balma,1988-03-05,93.2,185,200,210,210,210,12,D,Single-ply
M,Open,82.5,Stefano Bettati,1968-12-15,82.2,280,-300,-300,280,280,2,D,Single-ply
M,Open,90,Stefano Morelli,1967-10-23,87.4,170,180,-200,180,180,19,D,Single-ply
M,Open,90,Stefano Scipioni,1988-02-03,85,165,175,190,190,190,17,D,Single-ply
M,Open,75,Stefano Zampa,1986-04-20,73.5,210,230,242.5,242.5,242.5,4,D,Single-ply
M,Open,67.5,Sukhwinder Kumar,1981-06-04,65.6,195,205,-210,205,205,6,D,Single-ply
F,Open,52,Tania Prosperi,1976-12-06,52,115,125,135,135,135,2,D,Single-ply
F,Open,56,Tiziana Troilo,1972-08-11,55.2,120,132.5,-142.5,132.5,132.5,2,D,Single-ply
M,Open,82.5,Tiziano Tura,1977-05-17,79,-200,200,-220,200,200,17,D,Single-ply
M,Open,82.5,Valerio Treviso,1983-11-01,81.1,260,-267.5,-267.5,260,260,3,D,Single-ply
M,Open,100,Valerio Vaccaro,1977-02-17,98.2,220,240,-250,240,240,6,D,Single-ply
