Division,WeightClassKg,Place,Name,Team,BodyweightKg,Best3SquatKg,Best3BenchKg,Best3DeadliftKg,TotalKg,Equipment,Event,Sex,BirthDate
Boys,51.71,1,John Ortega,Mercedes,51.62,195.04,122.47,183.7,501.22,Single-ply,SBD,M,
Boys,51.71,2,Erick Estrella,Brownsville Lopez,50.98,176.9,83.91,176.9,437.72,Single-ply,SBD,M,
Boys,51.71,3,Hisaac Guerrero,Rio Hondo,51.07,156.49,104.33,145.15,405.97,Single-ply,SBD,M,
Boys,51.71,4,Logan Maldonado,Weslaco East,51.35,154.22,86.18,145.15,385.55,Single-ply,SBD,M,
Boys,51.71,5,Julian Gonzalez,Weslaco,51.62,127.01,74.84,145.15,347,Single-ply,SBD,M,
Boys,51.71,6,Adian Hernandez,La Villa,49.71,124.74,81.65,127.01,333.39,Single-ply,SBD,M,
Boys,51.71,7,Adolfo Segura,Valley View,49.08,117.93,52.16,120.2,290.3,Single-ply,SBD,M,
Boys,51.71,8,Jacob Martinez,Donna North,47.54,104.33,56.7,124.74,285.76,Single-ply,SBD,M,
Boys,51.71,9,Brian Zambrano,Harlingen South,50.53,108.86,56.7,108.86,274.42,Single-ply,SBD,M,
Boys,51.71,10,Dorian Ramirez,Hidalgo Early College,51.53,102.06,61.23,102.06,265.35,Single-ply,SBD,M,
Boys,51.71,11,Oscar Duarte,PSJA Memorial,47.81,97.52,52.16,102.06,251.74,Single-ply,SBD,M,
Boys,51.71,12,Gage Sanchez,Harlingen South,51.62,81.65,56.7,108.86,247.21,Single-ply,SBD,M,
Boys,55.79,1,Jorge Guajardo,Weslaco East,55.47,174.63,97.52,206.38,478.54,Single-ply,SBD,M,
Boys,55.79,2,JR Hernandez,Brownsville Rivera,55.7,158.76,104.33,179.17,442.25,Single-ply,SBD,M,
Boys,55.79,3,Juan Martinez,Mission Veterans Memorial,55.79,151.95,102.06,167.83,421.84,Single-ply,SBD,M,
Boys,55.79,4,Joel Madrigal,Donna North,55.16,133.81,83.91,176.9,394.63,Single-ply,SBD,M,
Boys,55.79,5,Zuriel Garcia,Valley View,55.07,131.54,97.52,156.49,385.55,Single-ply,SBD,M,
Boys,55.79,6,Sergio Carrillo,Weslaco,55.79,140.61,61.23,138.35,340.19,Single-ply,SBD,M,
Boys,55.79,7,Sebastian Yanez,Hidalgo Early College,55.79,111.13,65.77,145.15,322.05,Single-ply,SBD,M,
Boys,55.79,8,Sergio Castillo,PSJA Memorial,54.79,108.86,56.7,115.67,281.23,Single-ply,SBD,M,
Boys,55.79,9,Joseph Oliva,Donna,52.53,108.86,45.36,104.33,258.55,Single-ply,SBD,M,
Boys,55.79,10,Mario Gutierrez,Mission Veterans Memorial,52.8,90.72,49.9,104.33,244.94,Single-ply,SBD,M,
Boys,55.79,DQ,Gabriel Reyes,Donna North,54.7,142.88,,,,Single-ply,SBD,M,
Boys,59.87,1,Daniel Ochoa,Harlingen South,58.51,165.56,124.74,188.24,478.54,Single-ply,SBD,M,
Boys,59.87,2,Jonathan Garcia #4,Brownsville Lopez,59.69,147.42,90.72,176.9,415.04,Single-ply,SBD,M,
Boys,59.87,3,Gabriel Perez,Donna North,59.78,138.35,88.45,170.1,396.89,Single-ply,SBD,M,
Boys,59.87,4,Tomas Arredondo,Rio Hondo,59.87,136.08,102.06,149.69,387.82,Single-ply,SBD,M,
Boys,59.87,5,Jordan Alonzo,PSJA Memorial,57.88,117.93,97.52,167.83,383.29,Single-ply,SBD,M,
Boys,59.87,6,Gabriel Andrade,Brownsville Rivera,57.42,131.54,74.84,154.22,360.61,Single-ply,SBD,M,
Boys,67.13,1,Javier Castro,Brownsville Lopez,66.77,226.8,138.35,233.6,598.74,Single-ply,SBD,M,
Boys,67.13,2,Fernando Martinez,Weslaco,61.23,213.19,115.67,190.51,519.36,Single-ply,SBD,M,
Boys,67.13,3,Raven Figueroa,Weslaco East,64.86,172.37,111.13,201.85,485.34,Single-ply,SBD,M,
Boys,67.13,4,Jaryd Amaro,PSJA Memorial,64.23,188.24,102.06,188.24,478.54,Single-ply,SBD,M,
Boys,67.13,5,Alexis Martinez #3,Brownsville Lopez,65.14,165.56,102.06,201.85,469.47,Single-ply,SBD,M,
Boys,67.13,6,Marco Esparza,Hidalgo Early College,64.59,176.9,113.4,165.56,455.86,Single-ply,SBD,M,
Boys,67.13,7,Daniel Acuna,Donna North,64.86,158.76,102.06,190.51,451.32,Single-ply,SBD,M,
Boys,67.13,8,Alonso Bravo,Mission Veterans Memorial,66.32,156.49,115.67,158.76,430.91,Single-ply,SBD,M,
Boys,67.13,9,Nathaen Neira,Donna North,67.04,142.88,70.31,151.95,365.14,Single-ply,SBD,M,
Boys,67.13,DQ,Ivan Davila,Edinburg Economedes,63.32,136.08,,,,Single-ply,SBD,M,
Boys,74.84,1,Eddie Luna,Mercedes,74.39,238.14,142.88,226.8,607.81,Single-ply,SBD,M,
Boys,74.84,2,Luis De Hoyos,Mission Veterans Memorial,74.12,242.67,122.47,224.53,589.67,Single-ply,SBD,M,
Boys,74.84,3,Sergio Lerma,Weslaco,74.21,247.21,108.86,233.6,589.67,Single-ply,SBD,M,
Boys,74.84,4,Jerred Fuentes,Mercedes,73.48,238.14,111.13,201.85,551.11,Single-ply,SBD,M,
Boys,74.84,5,Adam Garza,Donna North,72.48,199.58,136.08,201.85,537.51,Single-ply,SBD,M,
Boys,74.84,6,Jacob Martinez,Hidalgo Early College,74.66,206.38,111.13,197.31,514.83,Single-ply,SBD,M,
Boys,74.84,7,Robert Rivera,La Villa,71.49,206.38,111.13,192.78,510.29,Single-ply,SBD,M,
Boys,74.84,8,Tony Anzaldua,Mercedes,72.57,190.51,117.93,179.17,487.61,Single-ply,SBD,M,
Boys,74.84,9,Jerry Reyes,La Villa,72.12,192.78,127.01,165.56,485.34,Single-ply,SBD,M,
Boys,74.84,10,Armando Santos,Weslaco East,74.07,163.29,106.59,197.31,467.2,Single-ply,SBD,M,
Boys,74.84,11,Jacob Olivarez,PSJA Memorial,74.84,176.9,113.4,172.37,462.66,Single-ply,SBD,M,
Boys,74.84,12,Steve Tijerina,PSJA Memorial,69.4,170.1,106.59,163.29,439.98,Single-ply,SBD,M,
Boys,74.84,13,Michael DeLeon,Mission Veterans Memorial,74.84,154.22,86.18,181.44,421.84,Single-ply,SBD,M,
Boys,74.84,14,Diego Mercado,Mission Veterans Memorial,74.84,151.95,77.11,154.22,383.29,Single-ply,SBD,M,
Boys,74.84,15,Ever Reyes,La Villa,70.76,154.22,79.38,138.35,371.95,Single-ply,SBD,M,
Boys,74.84,16,Anthony Hinojosa,Brownsville Rivera,74.39,136.08,61.23,158.76,356.07,Single-ply,SBD,M,
Boys,74.84,17,Lucio Garcia-Huerta,Brownsville Lopez,74.12,133.81,70.31,145.15,349.27,Single-ply,SBD,M,
Boys,74.84,18,Jose Nino,Donna,74.57,102.06,72.57,124.74,299.37,Single-ply,SBD,M,
Boys,82.1,1,Brandon Adame,Mercedes,81.37,272.16,142.88,249.48,664.51,Single-ply,SBD,M,
Boys,82.1,2,Irwin Morin,Weslaco East,81.42,206.38,129.27,217.72,553.38,Single-ply,SBD,M,
Boys,82.1,3,Miguel Jimenez,Mercedes,78.29,188.24,117.93,208.65,514.83,Single-ply,SBD,M,
Boys,82.1,4,Miguel Guerrero,Hidalgo Early College,76.29,185.97,122.47,190.51,498.95,Single-ply,SBD,M,
Boys,82.1,5,Felix Villarreal,Mission Veterans Memorial,77.11,181.44,102.06,204.12,487.61,Single-ply,SBD,M,
Boys,82.1,6,Chris Delatorre,Valley View,75.84,181.44,106.59,195.04,483.08,Single-ply,SBD,M,
Boys,82.1,7,Eddie Rodriguez,PSJA Memorial,78.74,174.63,111.13,195.04,480.81,Single-ply,SBD,M,
Boys,82.1,8,Anthony Villareal,Valley View,77.66,174.63,86.18,167.83,428.64,Single-ply,SBD,M,
Boys,82.1,9,Armando Del Razo,Donna,77.02,161.03,83.91,167.83,412.77,Single-ply,SBD,M,
Boys,82.1,10,Mario Guervara,Donna North,78.74,142.88,97.52,138.35,378.75,Single-ply,SBD,M,
Boys,82.1,DQ,Daniel Vallejo,Rio Hondo,82.1,195.04,,,,Single-ply,SBD,M,
Boys,89.81,1,Peyton Knaub,Weslaco,87.18,238.14,154.22,242.67,635.03,Single-ply,SBD,M,
Boys,89.81,2,Aaron Longoria,Mission Veterans Memorial,88.63,254.01,124.74,215.46,594.21,Single-ply,SBD,M,
Boys,89.81,3,Marco Martinez-Aguilar,Brownsville Lopez,82.74,206.38,136.08,231.33,573.79,Single-ply,SBD,M,
Boys,89.81,4,Francisco Castillo,Mission Veterans Memorial,88,213.19,127.01,206.38,546.58,Single-ply,SBD,M,
Boys,89.81,5,Mariano Martinez,Valley View,89.36,213.19,129.27,197.31,539.77,Single-ply,SBD,M,
Boys,89.81,6,Luis Bautista,Valley View,88,188.24,127.01,215.46,530.7,Single-ply,SBD,M,
Boys,89.81,7,Roberto Zamora,Rio Hondo,89.36,179.17,133.81,185.97,498.95,Single-ply,SBD,M,
Boys,89.81,8,Mario Ramirez,Brownsville Lopez,89.54,179.17,108.86,192.78,480.81,Single-ply,SBD,M,
Boys,89.81,9,Enrique Mabulay,Harlingen South,87.18,170.1,102.06,181.44,453.59,Single-ply,SBD,M,
Boys,89.81,10,Francisco Gomez-Fuentes,Mission Veterans Memorial,84.82,161.03,97.52,161.03,419.57,Single-ply,SBD,M,
Boys,89.81,DQ,Gustavo Vasquez,Donna North,86.64,204.12,,,,Single-ply,SBD,M,
Boys,99.79,1,Larry Strickland,Weslaco,90.72,294.84,147.42,260.82,703.07,Single-ply,SBD,M,
Boys,99.79,2,Noah Castillo,Weslaco East,98.97,242.67,149.69,219.99,612.35,Single-ply,SBD,M,
Boys,99.79,3,Donnie Caballero,Hidalgo Early College,92.26,204.12,142.88,219.99,566.99,Single-ply,SBD,M,
Boys,99.79,4,Roan Galvan,Mercedes,92.08,233.6,145.15,174.63,553.38,Single-ply,SBD,M,
Boys,99.79,5,Michael Garza Jr,Rio Hondo,99.52,233.6,142.88,172.37,548.85,Single-ply,SBD,M,
Boys,99.79,6,Guadalupe Salinas,Brownsville Rivera,90.72,195.04,108.86,217.72,521.63,Single-ply,SBD,M,
Boys,99.79,7,Brandon Santiago,Donna North,97.34,199.58,104.33,204.12,508.02,Single-ply,SBD,M,
Boys,99.79,8,Andres Normendez,Valley View,90.63,176.9,115.67,199.58,492.15,Single-ply,SBD,M,
Boys,99.79,9,Esteban Torres,La Villa,92.71,195.04,102.06,190.51,487.61,Single-ply,SBD,M,
Boys,99.79,10,Victor Ibarra,PSJA Memorial,90.54,185.97,99.79,195.04,480.81,Single-ply,SBD,M,
Boys,99.79,11,Mark Pena,PSJA Memorial,95.25,172.37,95.25,188.24,455.86,Single-ply,SBD,M,
Boys,99.79,12,Carlos Delgado,Brownsville Lopez,99.61,167.83,83.91,183.7,435.45,Single-ply,SBD,M,
Boys,99.79,13,Roberto Zepeda,Edinburg Economedes,93.71,142.88,88.45,176.9,408.23,Single-ply,SBD,M,
Boys,99.79,14,Aden Morris,Harlingen South,96.71,127.01,90.72,154.22,371.95,Single-ply,SBD,M,
Boys,99.79,15,Fernando Robledo,Donna,96.52,127.01,81.65,108.86,317.51,Single-ply,SBD,M,
Boys,99.79,DQ,Richard Gonzalez,Brownsville Lopez,91.81,195.04,,,,Single-ply,SBD,M,
Boys,99.79,DQ,Jesus Hernandez #5,Brownsville Rivera,94.53,,,,,Single-ply,SBD,M,
Boys,99.79,DQ,Gerardo Sifuentes,Edinburg Economedes,96.62,233.6,133.81,,,Single-ply,SBD,M,
Boys,109.77,1,Erasmo Garces,Weslaco,101.24,240.4,147.42,233.6,621.42,Single-ply,SBD,M,
Boys,109.77,2,Josue Moralez,Weslaco East,105.46,233.6,151.95,233.6,619.15,Single-ply,SBD,M,
Boys,109.77,3,Angel Pulido,Hidalgo Early College,105.32,265.35,142.88,188.24,596.47,Single-ply,SBD,M,
Boys,109.77,4,Christopher Perez,Mission Veterans Memorial,105.6,240.4,136.08,217.72,594.21,Single-ply,SBD,M,
Boys,109.77,5,Andrew Reyes,Weslaco,107.95,229.06,133.81,215.46,578.33,Single-ply,SBD,M,
Boys,109.77,6,Ángel Sánchez,Brownsville Lopez,108.59,222.26,104.33,195.04,521.63,Single-ply,SBD,M,
Boys,109.77,7,Tomas Garcia,Rio Hondo,100.24,199.58,136.08,183.7,519.36,Single-ply,SBD,M,
Boys,109.77,8,Hector Guerrero,Brownsville Rivera,107.59,219.99,106.59,185.97,512.56,Single-ply,SBD,M,
Boys,109.77,9,Aiden Rivas,Donna,105.6,199.58,117.93,172.37,489.88,Single-ply,SBD,M,
Boys,109.77,10,Hector Naverez,Valley View,103.69,158.76,106.59,181.44,446.79,Single-ply,SBD,M,
Boys,109.77,11,Isaac Torres,Harlingen South,107.59,154.22,127.01,163.29,444.52,Single-ply,SBD,M,
Boys,109.77,12,Dorien Martin,Mercedes,101.24,174.63,102.06,158.76,435.45,Single-ply,SBD,M,
Boys,109.77,13,Ricardo De Leon,Edinburg Economedes,107.68,170.1,102.06,163.29,435.45,Single-ply,SBD,M,
Boys,109.77,14,William Hoelscher,Harlingen South,106.14,154.22,92.99,158.76,405.97,Single-ply,SBD,M,
Boys,109.77,15,Martin Alvarez,Harlingen South,106.59,158.76,81.65,165.56,405.97,Single-ply,SBD,M,
Boys,109.77,DQ,Anthony Selvera,Rio Hondo,101.6,244.94,,,,Single-ply,SBD,M,
Boys,124.74,1,Roland Morales,Weslaco,121.02,283.5,181.44,244.94,709.87,Single-ply,SBD,M,
Boys,124.74,2,Matthew Lopez #1,Rio Hondo,117.48,285.76,174.63,235.87,696.26,Single-ply,SBD,M,
Boys,124.74,3,Raul Martinez,Weslaco,124.19,278.96,183.7,210.92,673.58,Single-ply,SBD,M,
Boys,124.74,4,Kobe Duenas,Mercedes,111.77,231.33,215.46,215.46,662.24,Single-ply,SBD,M,
Boys,124.74,5,Cesar Rangel,PSJA Memorial,116.94,265.35,161.03,222.26,648.64,Single-ply,SBD,M,
Boys,124.74,6,Abisai Tijerina,Edinburg Economedes,120.02,247.21,138.35,238.14,623.69,Single-ply,SBD,M,
Boys,124.74,7,Isaac Longoria,Hidalgo Early College,120.47,256.28,147.42,206.38,610.08,Single-ply,SBD,M,
Boys,124.74,8,Jaime Elissetche,La Villa,118.39,265.35,133.81,195.04,594.21,Single-ply,SBD,M,
Boys,124.74,9,Jose Zavala,Weslaco East,118.16,256.28,138.35,183.7,578.33,Single-ply,SBD,M,
Boys,124.74,10,Ruben Guerra,Hidalgo Early College,115.03,235.87,113.4,201.85,551.11,Single-ply,SBD,M,
Boys,124.74,11,Abraham Lozano,Brownsville Rivera,122.02,229.06,111.13,192.78,532.97,Single-ply,SBD,M,
Boys,124.74,12,Robert Torres,Weslaco East,124.74,192.78,142.88,174.63,510.29,Single-ply,SBD,M,
Boys,124.74,13,Francisco Bazaldua,Harlingen South,116.48,174.63,145.15,163.29,483.08,Single-ply,SBD,M,
Boys,124.74,14,Jonathan Avita,Donna,122.11,149.69,72.57,124.74,347,Single-ply,SBD,M,
Boys,124.74,DQ,Juan Payan,Brownsville Rivera,118.3,,,,,Single-ply,SBD,M,
Boys,124.74+,1,Pedro Posada,Weslaco East,140.84,274.42,204.12,219.99,698.53,Single-ply,SBD,M,
Boys,124.74+,2,Thomas Santillan,Weslaco,126.46,285.76,140.61,226.8,653.17,Single-ply,SBD,M,
Boys,124.74+,3,Jose Martinez,PSJA Memorial,142.43,260.82,149.69,226.8,637.3,Single-ply,SBD,M,
Boys,124.74+,4,Juan Mendoza,Harlingen South,150.14,233.6,149.69,242.67,625.96,Single-ply,SBD,M,
Boys,124.74+,5,Omar Olvera,Weslaco East,139.93,226.8,156.49,210.92,594.21,Single-ply,SBD,M,
Boys,124.74+,6,Dexter Delgado,Harlingen South,145.6,188.24,161.03,183.7,532.97,Single-ply,SBD,M,
Boys,124.74+,7,Caleb Davis,Harlingen South,137.98,185.97,151.95,161.03,498.95,Single-ply,SBD,M,
Boys,124.74+,8,Ty Mattingly,Harlingen South,157.03,122.47,111.13,138.35,371.95,Single-ply,SBD,M,
Boys,124.74+,DQ,Davad Garza,Hidalgo Early College,141.34,,,,,Single-ply,SBD,M,
Boys,124.74+,DQ,Rolando Zuniga,Rio Hondo,163.29,,,,,Single-ply,SBD,M,
Boys,,NS,Adrian Gonzalez,Rio Hondo,,,,,,Single-ply,SBD,M,
Boys,,NS,Carlos Olmedo,Mercedes,,,,,,Single-ply,SBD,M,
Boys,,NS,Fidencio Mesa,Harlingen South,,,,,,Single-ply,SBD,M,
Boys,,NS,Jose Hernandez #17,Brownsville Rivera,,,,,,Single-ply,SBD,M,
Boys,,NS,Jesus Pardo,Brownsville Rivera,,,,,,Single-ply,SBD,M,
Boys,,NS,Jesus Salas,Brownsville Rivera,,,,,,Single-ply,SBD,M,
Boys,,NS,Michael Magana,Harlingen South,,,,,,Single-ply,SBD,M,
Boys,,NS,Javier Lopez,Donna North,,,,,,Single-ply,SBD,M,
Boys,,NS,Saul Hernandez,Hidalgo Early College,,,,,,Single-ply,SBD,M,
Boys,,NS,Enrique Gracia,Valley View,,,,,,Single-ply,SBD,M,
Boys,,NS,Albert Gonzalez,Valley View,,,,,,Single-ply,SBD,M,
Boys,,NS,Efrain Lopez,Rio Hondo,,,,,,Single-ply,SBD,M,
Boys,,NS,Jon Ramirez,Donna,,,,,,Single-ply,SBD,M,
Boys,,NS,Michael Sanchez,Donna,,,,,,Single-ply,SBD,M,
Boys,,NS,Angel Valdez,Brownsville Lopez,,,,,,Single-ply,SBD,M,
Boys,,NS,George Flores,Edinburg Economedes,,,,,,Single-ply,SBD,M,
Boys,,NS,Darvinn Rodriguez,Edinburg Economedes,,,,,,Single-ply,SBD,M,
Boys,,NS,Jesse Leal,Edinburg Economedes,,,,,,Single-ply,SBD,M,
